# Blender v2.77 (sub 0) OBJ File: 'Rook.blend'
# www.blender.org
v 0.000000 0.007346 -0.241816
v 0.000000 0.134581 -0.241816
v 0.047176 0.007346 -0.237169
v 0.047176 0.134581 -0.237169
v 0.092539 0.007346 -0.223408
v 0.092539 0.134581 -0.223408
v 0.134346 0.007346 -0.201062
v 0.134346 0.134581 -0.201062
v 0.170990 0.007346 -0.170989
v 0.170990 0.134581 -0.170989
v 0.201063 0.007346 -0.134345
v 0.201063 0.134581 -0.134345
v 0.223409 0.007346 -0.092539
v 0.223409 0.134581 -0.092539
v 0.237169 0.007346 -0.047176
v 0.237169 0.134581 -0.047176
v 0.241816 0.007346 0.000000
v 0.241816 0.134581 0.000000
v 0.237169 0.007346 0.047176
v 0.237169 0.134581 0.047176
v 0.223409 0.007346 0.092539
v 0.223409 0.134581 0.092539
v 0.201063 0.007346 0.134346
v 0.201063 0.134581 0.134346
v 0.170990 0.007346 0.170990
v 0.170990 0.134581 0.170990
v 0.134346 0.007346 0.201062
v 0.134346 0.134581 0.201062
v 0.092539 0.007346 0.223409
v 0.092539 0.134581 0.223409
v 0.047176 0.007346 0.237169
v 0.047176 0.134581 0.237169
v 0.000000 0.007346 0.241816
v 0.000000 0.134581 0.241816
v -0.047176 0.007346 0.237169
v -0.047176 0.134581 0.237169
v -0.092539 0.007346 0.223408
v -0.092539 0.134581 0.223408
v -0.134346 0.007346 0.201062
v -0.134346 0.134581 0.201062
v -0.170989 0.007346 0.170989
v -0.170989 0.134581 0.170989
v -0.201062 0.007346 0.134345
v -0.201062 0.134581 0.134345
v -0.223408 0.007346 0.092539
v -0.223408 0.134581 0.092539
v -0.237169 0.007346 0.047176
v -0.237169 0.134581 0.047176
v -0.241816 0.007346 -0.000000
v -0.241816 0.134581 -0.000000
v -0.237169 0.007346 -0.047176
v -0.237169 0.134581 -0.047176
v -0.223408 0.007346 -0.092539
v -0.223408 0.134581 -0.092539
v -0.201062 0.007346 -0.134346
v -0.201062 0.134581 -0.134346
v -0.170989 0.007346 -0.170990
v -0.170989 0.134581 -0.170990
v -0.134345 0.007346 -0.201062
v -0.134345 0.134581 -0.201062
v -0.092538 0.007346 -0.223409
v -0.092538 0.134581 -0.223409
v -0.047175 0.007346 -0.237169
v -0.047175 0.134581 -0.237169
v 0.000000 0.172228 -0.198599
v 0.038745 0.172228 -0.194783
v 0.076001 0.172228 -0.183482
v 0.110336 0.172228 -0.165129
v 0.140431 0.172228 -0.140431
v 0.165129 0.172228 -0.110336
v 0.183482 0.172228 -0.076001
v 0.194783 0.172228 -0.038745
v 0.198599 0.172228 0.000000
v 0.194783 0.172228 0.038745
v 0.183482 0.172228 0.076001
v 0.165129 0.172228 0.110336
v 0.140431 0.172228 0.140431
v 0.110336 0.172228 0.165129
v 0.076001 0.172228 0.183482
v 0.038745 0.172228 0.194783
v 0.000000 0.172228 0.198599
v -0.038745 0.172228 0.194783
v -0.076000 0.172228 0.183482
v -0.110336 0.172228 0.165129
v -0.140431 0.172228 0.140431
v -0.165129 0.172228 0.110336
v -0.183482 0.172228 0.076000
v -0.194783 0.172228 0.038745
v -0.198599 0.172228 -0.000000
v -0.194783 0.172228 -0.038745
v -0.183481 0.172228 -0.076001
v -0.165129 0.172228 -0.110336
v -0.140430 0.172228 -0.140431
v -0.110335 0.172228 -0.165129
v -0.076000 0.172228 -0.183482
v -0.038744 0.172228 -0.194783
v 0.000000 0.197327 -0.198599
v 0.038745 0.197327 -0.194783
v 0.076001 0.197327 -0.183482
v 0.110336 0.197327 -0.165129
v 0.140431 0.197327 -0.140431
v 0.165129 0.197327 -0.110336
v 0.183482 0.197327 -0.076001
v 0.194783 0.197327 -0.038745
v 0.198599 0.197327 0.000000
v 0.194783 0.197327 0.038745
v 0.183482 0.197327 0.076001
v 0.165129 0.197327 0.110336
v 0.140431 0.197327 0.140431
v 0.110336 0.197327 0.165129
v 0.076001 0.197327 0.183482
v 0.038745 0.197327 0.194783
v 0.000000 0.197327 0.198599
v -0.038745 0.197327 0.194783
v -0.076000 0.197327 0.183482
v -0.110336 0.197327 0.165129
v -0.140431 0.197327 0.140431
v -0.165129 0.197327 0.110336
v -0.183482 0.197327 0.076000
v -0.194783 0.197327 0.038745
v -0.198599 0.197327 -0.000000
v -0.194783 0.197327 -0.038745
v -0.183481 0.197327 -0.076001
v -0.165129 0.197327 -0.110336
v -0.140430 0.197327 -0.140431
v -0.110335 0.197327 -0.165129
v -0.076000 0.197327 -0.183482
v -0.038744 0.197327 -0.194783
v 0.000000 0.252543 -0.150743
v 0.029409 0.252543 -0.147846
v 0.057687 0.252543 -0.139268
v 0.083748 0.252543 -0.125338
v 0.106591 0.252543 -0.106591
v 0.125338 0.252543 -0.083748
v 0.139268 0.252543 -0.057687
v 0.147846 0.252543 -0.029408
v 0.150743 0.252543 0.000000
v 0.147846 0.252543 0.029408
v 0.139268 0.252543 0.057687
v 0.125338 0.252543 0.083748
v 0.106591 0.252543 0.106591
v 0.083748 0.252543 0.125338
v 0.057687 0.252543 0.139268
v 0.029409 0.252543 0.147846
v 0.000000 0.252543 0.150743
v -0.029408 0.252543 0.147846
v -0.057687 0.252543 0.139268
v -0.083748 0.252543 0.125338
v -0.106591 0.252543 0.106591
v -0.125338 0.252543 0.083748
v -0.139268 0.252543 0.057687
v -0.147846 0.252543 0.029408
v -0.150743 0.252543 -0.000000
v -0.147846 0.252543 -0.029409
v -0.139268 0.252543 -0.057687
v -0.125338 0.252543 -0.083748
v -0.106591 0.252543 -0.106591
v -0.083748 0.252543 -0.125338
v -0.057686 0.252543 -0.139268
v -0.029408 0.252543 -0.147846
v 0.000000 0.317799 -0.119450
v 0.023304 0.317799 -0.117155
v 0.045712 0.317799 -0.110358
v 0.066363 0.317799 -0.099319
v 0.084464 0.317799 -0.084464
v 0.099319 0.317799 -0.066363
v 0.110358 0.317799 -0.045712
v 0.117155 0.317799 -0.023304
v 0.119450 0.317799 0.000000
v 0.117155 0.317799 0.023304
v 0.110358 0.317799 0.045712
v 0.099319 0.317799 0.066363
v 0.084464 0.317799 0.084464
v 0.066363 0.317799 0.099319
v 0.045712 0.317799 0.110358
v 0.023304 0.317799 0.117155
v 0.000000 0.317799 0.119450
v -0.023304 0.317799 0.117155
v -0.045712 0.317799 0.110358
v -0.066363 0.317799 0.099319
v -0.084464 0.317799 0.084464
v -0.099319 0.317799 0.066363
v -0.110358 0.317799 0.045712
v -0.117155 0.317799 0.023304
v -0.119450 0.317799 -0.000000
v -0.117155 0.317799 -0.023304
v -0.110357 0.317799 -0.045712
v -0.099319 0.317799 -0.066363
v -0.084464 0.317799 -0.084464
v -0.066363 0.317799 -0.099319
v -0.045711 0.317799 -0.110358
v -0.023303 0.317799 -0.117155
v 0.000000 0.367995 -0.098802
v 0.019275 0.367995 -0.096904
v 0.037810 0.367995 -0.091281
v 0.054892 0.367995 -0.082151
v 0.069864 0.367995 -0.069864
v 0.082151 0.367995 -0.054891
v 0.091281 0.367995 -0.037810
v 0.096904 0.367995 -0.019275
v 0.098802 0.367995 0.000000
v 0.096904 0.367995 0.019275
v 0.091281 0.367995 0.037810
v 0.082151 0.367995 0.054891
v 0.069864 0.367995 0.069864
v 0.054892 0.367995 0.082151
v 0.037810 0.367995 0.091281
v 0.019275 0.367995 0.096904
v 0.000000 0.367995 0.098802
v -0.019275 0.367995 0.096904
v -0.037810 0.367995 0.091281
v -0.054891 0.367995 0.082151
v -0.069863 0.367995 0.069864
v -0.082151 0.367995 0.054891
v -0.091281 0.367995 0.037810
v -0.096903 0.367995 0.019275
v -0.098802 0.367995 -0.000000
v -0.096903 0.367995 -0.019275
v -0.091281 0.367995 -0.037810
v -0.082151 0.367995 -0.054892
v -0.069863 0.367995 -0.069864
v -0.054891 0.367995 -0.082151
v -0.037810 0.367995 -0.091281
v -0.019275 0.367995 -0.096904
v 0.000000 0.425722 -0.084232
v 0.016433 0.425722 -0.082613
v 0.032234 0.425722 -0.077820
v 0.046797 0.425722 -0.070036
v 0.059561 0.425722 -0.059561
v 0.070036 0.425722 -0.046797
v 0.077820 0.425722 -0.032234
v 0.082613 0.425722 -0.016433
v 0.084232 0.425722 0.000000
v 0.082613 0.425722 0.016433
v 0.077820 0.425722 0.032234
v 0.070036 0.425722 0.046797
v 0.059561 0.425722 0.059561
v 0.046797 0.425722 0.070036
v 0.032234 0.425722 0.077820
v 0.016433 0.425722 0.082613
v 0.000000 0.425722 0.084232
v -0.016433 0.425722 0.082613
v -0.032234 0.425722 0.077820
v -0.046797 0.425722 0.070036
v -0.059561 0.425722 0.059561
v -0.070036 0.425722 0.046797
v -0.077820 0.425722 0.032234
v -0.082613 0.425722 0.016433
v -0.084231 0.425722 -0.000000
v -0.082613 0.425722 -0.016433
v -0.077820 0.425722 -0.032234
v -0.070036 0.425722 -0.046797
v -0.059561 0.425722 -0.059561
v -0.046796 0.425722 -0.070036
v -0.032234 0.425722 -0.077820
v -0.016432 0.425722 -0.082613
v 0.000000 0.480938 -0.084232
v 0.016433 0.480938 -0.082613
v 0.032234 0.480938 -0.077820
v 0.046797 0.480938 -0.070036
v 0.059561 0.480938 -0.059561
v 0.070036 0.480938 -0.046797
v 0.077820 0.480938 -0.032234
v 0.082613 0.480938 -0.016433
v 0.084232 0.480938 0.000000
v 0.082613 0.480938 0.016433
v 0.077820 0.480938 0.032234
v 0.070036 0.480938 0.046797
v 0.059561 0.480938 0.059561
v 0.046797 0.480938 0.070036
v 0.032234 0.480938 0.077820
v 0.016433 0.480938 0.082613
v 0.000000 0.480938 0.084232
v -0.016433 0.480938 0.082613
v -0.032234 0.480938 0.077820
v -0.046797 0.480938 0.070036
v -0.059561 0.480938 0.059561
v -0.070036 0.480938 0.046797
v -0.077820 0.480938 0.032234
v -0.082613 0.480938 0.016433
v -0.084231 0.480938 -0.000000
v -0.082613 0.480938 -0.016433
v -0.077820 0.480938 -0.032234
v -0.070036 0.480938 -0.046797
v -0.059561 0.480938 -0.059561
v -0.046796 0.480938 -0.070036
v -0.032234 0.480938 -0.077820
v -0.016432 0.480938 -0.082613
v 0.000000 0.548704 -0.086728
v 0.016920 0.548704 -0.085062
v 0.033190 0.548704 -0.080126
v 0.048184 0.548704 -0.072112
v 0.061326 0.548704 -0.061326
v 0.072112 0.548704 -0.048184
v 0.080127 0.548704 -0.033189
v 0.085062 0.548704 -0.016920
v 0.086728 0.548704 0.000000
v 0.085062 0.548704 0.016920
v 0.080127 0.548704 0.033189
v 0.072112 0.548704 0.048184
v 0.061326 0.548704 0.061326
v 0.048184 0.548704 0.072112
v 0.033190 0.548704 0.080126
v 0.016920 0.548704 0.085062
v 0.000000 0.548704 0.086728
v -0.016920 0.548704 0.085062
v -0.033189 0.548704 0.080126
v -0.048184 0.548704 0.072112
v -0.061326 0.548704 0.061326
v -0.072112 0.548704 0.048184
v -0.080126 0.548704 0.033189
v -0.085062 0.548704 0.016920
v -0.086728 0.548704 -0.000000
v -0.085062 0.548704 -0.016920
v -0.080126 0.548704 -0.033190
v -0.072112 0.548704 -0.048184
v -0.061326 0.548704 -0.061326
v -0.048183 0.548704 -0.072112
v -0.033189 0.548704 -0.080126
v -0.016920 0.548704 -0.085062
v 0.000000 0.576312 -0.086728
v 0.016920 0.576312 -0.085062
v 0.033190 0.576312 -0.080126
v 0.048184 0.576312 -0.072112
v 0.061326 0.576312 -0.061326
v 0.072112 0.576312 -0.048184
v 0.080127 0.576312 -0.033189
v 0.085062 0.576312 -0.016920
v 0.086728 0.576312 0.000000
v 0.085062 0.576312 0.016920
v 0.080127 0.576312 0.033189
v 0.072112 0.576312 0.048184
v 0.061326 0.576312 0.061326
v 0.048184 0.576312 0.072112
v 0.033190 0.576312 0.080126
v 0.016920 0.576312 0.085062
v 0.000000 0.576312 0.086728
v -0.016920 0.576312 0.085062
v -0.033189 0.576312 0.080126
v -0.048184 0.576312 0.072112
v -0.061326 0.576312 0.061326
v -0.072112 0.576312 0.048184
v -0.080126 0.576312 0.033189
v -0.085062 0.576312 0.016920
v -0.086728 0.576312 -0.000000
v -0.085062 0.576312 -0.016920
v -0.080126 0.576312 -0.033190
v -0.072112 0.576312 -0.048184
v -0.061326 0.576312 -0.061326
v -0.048183 0.576312 -0.072112
v -0.033189 0.576312 -0.080126
v -0.016920 0.576312 -0.085062
v 0.000000 0.588861 -0.163148
v 0.031829 0.588861 -0.160013
v 0.062434 0.588861 -0.150729
v 0.090640 0.588861 -0.135653
v 0.115363 0.588861 -0.115363
v 0.135653 0.588861 -0.090640
v 0.150729 0.588861 -0.062434
v 0.160013 0.588861 -0.031829
v 0.163148 0.588861 0.000000
v 0.160013 0.588861 0.031829
v 0.150729 0.588861 0.062434
v 0.135653 0.588861 0.090640
v 0.115363 0.588861 0.115363
v 0.090640 0.588861 0.135653
v 0.062434 0.588861 0.150729
v 0.031829 0.588861 0.160013
v 0.000000 0.588861 0.163148
v -0.031828 0.588861 0.160013
v -0.062434 0.588861 0.150729
v -0.090640 0.588861 0.135653
v -0.115363 0.588861 0.115363
v -0.135653 0.588861 0.090640
v -0.150729 0.588861 0.062434
v -0.160013 0.588861 0.031829
v -0.163148 0.588861 -0.000000
v -0.160013 0.588861 -0.031829
v -0.150729 0.588861 -0.062434
v -0.135652 0.588861 -0.090640
v -0.115363 0.588861 -0.115363
v -0.090640 0.588861 -0.135653
v -0.062434 0.588861 -0.150729
v -0.031828 0.588861 -0.160013
v 0.000000 0.621489 -0.176449
v 0.034424 0.621489 -0.173059
v 0.067524 0.621489 -0.163018
v 0.098030 0.621489 -0.146712
v 0.124769 0.621489 -0.124768
v 0.146712 0.621489 -0.098030
v 0.163018 0.621489 -0.067524
v 0.173059 0.621489 -0.034424
v 0.176449 0.621489 0.000000
v 0.173059 0.621489 0.034424
v 0.163018 0.621489 0.067524
v 0.146712 0.621489 0.098030
v 0.124769 0.621489 0.124769
v 0.098030 0.621489 0.146712
v 0.067524 0.621489 0.163018
v 0.034424 0.621489 0.173059
v 0.000000 0.621489 0.176449
v -0.034423 0.621489 0.173059
v -0.067524 0.621489 0.163018
v -0.098030 0.621489 0.146712
v -0.124768 0.621489 0.124769
v -0.146712 0.621489 0.098030
v -0.163018 0.621489 0.067524
v -0.173059 0.621489 0.034423
v -0.176449 0.621489 -0.000000
v -0.173059 0.621489 -0.034424
v -0.163018 0.621489 -0.067524
v -0.146712 0.621489 -0.098030
v -0.124768 0.621489 -0.124769
v -0.098030 0.621489 -0.146712
v -0.067524 0.621489 -0.163018
v -0.034423 0.621489 -0.173059
v 0.000000 0.644077 -0.176449
v 0.034424 0.644077 -0.173059
v 0.067524 0.644077 -0.163018
v 0.098030 0.644077 -0.146712
v 0.124769 0.644077 -0.124768
v 0.146712 0.644077 -0.098030
v 0.163018 0.644077 -0.067524
v 0.173059 0.644077 -0.034424
v 0.176449 0.644077 0.000000
v 0.173059 0.644077 0.034424
v 0.163018 0.644077 0.067524
v 0.146712 0.644077 0.098030
v 0.124769 0.644077 0.124769
v 0.098030 0.644077 0.146712
v 0.067524 0.644077 0.163018
v 0.034424 0.644077 0.173059
v 0.000000 0.644077 0.176449
v -0.034423 0.644077 0.173059
v -0.067524 0.644077 0.163018
v -0.098030 0.644077 0.146712
v -0.124768 0.644077 0.124769
v -0.146712 0.644077 0.098030
v -0.163018 0.644077 0.067524
v -0.173059 0.644077 0.034423
v -0.176449 0.644077 -0.000000
v -0.173059 0.644077 -0.034424
v -0.163018 0.644077 -0.067524
v -0.146712 0.644077 -0.098030
v -0.124768 0.644077 -0.124769
v -0.098030 0.644077 -0.146712
v -0.067524 0.644077 -0.163018
v -0.034423 0.644077 -0.173059
v 0.000000 0.716863 -0.176449
v 0.034424 0.716863 -0.173059
v 0.067524 0.716863 -0.163018
v 0.098030 0.716863 -0.146712
v 0.124769 0.716863 -0.124768
v 0.146712 0.716863 -0.098030
v 0.163018 0.716863 -0.067524
v 0.173059 0.716863 -0.034424
v 0.176449 0.716863 0.000000
v 0.173059 0.716863 0.034424
v 0.163018 0.716863 0.067524
v 0.146712 0.716863 0.098030
v 0.124769 0.716863 0.124769
v 0.098030 0.716863 0.146712
v 0.067524 0.716863 0.163018
v 0.034424 0.716863 0.173059
v 0.000000 0.716863 0.176449
v -0.034423 0.716863 0.173059
v -0.067524 0.716863 0.163018
v -0.098030 0.716863 0.146712
v -0.124768 0.716863 0.124769
v -0.146712 0.716863 0.098030
v -0.163018 0.716863 0.067524
v -0.173059 0.716863 0.034423
v -0.176449 0.716863 -0.000000
v -0.173059 0.716863 -0.034424
v -0.163018 0.716863 -0.067524
v -0.146712 0.716863 -0.098030
v -0.124768 0.716863 -0.124769
v -0.098030 0.716863 -0.146712
v -0.067524 0.716863 -0.163018
v -0.034423 0.716863 -0.173059
v 0.000000 0.717957 -0.106223
v 0.020723 0.717957 -0.104182
v 0.040650 0.717957 -0.098138
v 0.059015 0.717957 -0.088321
v 0.075111 0.717957 -0.075111
v 0.088322 0.717957 -0.059014
v 0.098138 0.717957 -0.040650
v 0.104182 0.717957 -0.020723
v 0.106223 0.717957 0.000000
v 0.104182 0.717957 0.020723
v 0.098138 0.717957 0.040650
v 0.088322 0.717957 0.059015
v 0.075111 0.717957 0.075111
v 0.059015 0.717957 0.088322
v 0.040650 0.717957 0.098138
v 0.020723 0.717957 0.104182
v 0.000000 0.717957 0.106223
v -0.020723 0.717957 0.104182
v -0.040650 0.717957 0.098138
v -0.059014 0.717957 0.088321
v -0.075111 0.717957 0.075111
v -0.088321 0.717957 0.059015
v -0.098137 0.717957 0.040650
v -0.104182 0.717957 0.020723
v -0.106223 0.717957 -0.000000
v -0.104182 0.717957 -0.020723
v -0.098137 0.717957 -0.040650
v -0.088321 0.717957 -0.059015
v -0.075111 0.717957 -0.075111
v -0.059014 0.717957 -0.088322
v -0.040650 0.717957 -0.098138
v -0.020723 0.717957 -0.104182
v 0.000000 0.717257 0.000000
v 0.034424 0.822276 -0.173059
v 0.067524 0.822276 -0.163018
v 0.098030 0.822276 -0.146712
v 0.124769 0.822276 -0.124768
v 0.146712 0.822276 -0.098030
v 0.163018 0.822276 -0.067524
v 0.173059 0.822276 0.034424
v 0.163018 0.822276 0.067524
v 0.146712 0.822276 0.098030
v 0.124769 0.822276 0.124769
v 0.098030 0.822276 0.146712
v 0.067524 0.822276 0.163018
v -0.034423 0.822276 0.173059
v -0.067524 0.822276 0.163018
v -0.098030 0.822276 0.146712
v -0.124768 0.822276 0.124769
v -0.146712 0.822276 0.098030
v -0.163018 0.822276 0.067524
v -0.173059 0.822276 -0.034424
v -0.163018 0.822276 -0.067524
v -0.146712 0.822276 -0.098030
v -0.124768 0.822276 -0.124769
v -0.098030 0.822276 -0.146712
v -0.067524 0.822276 -0.163018
v 0.020723 0.823370 -0.104182
v 0.040650 0.823370 -0.098138
v 0.059015 0.823370 -0.088321
v 0.075111 0.823370 -0.075111
v 0.088322 0.823370 -0.059014
v 0.098138 0.823370 -0.040650
v 0.104182 0.823370 0.020723
v 0.098138 0.823370 0.040650
v 0.088322 0.823370 0.059015
v 0.075111 0.823370 0.075111
v 0.059015 0.823370 0.088322
v 0.040650 0.823370 0.098138
v -0.020723 0.823370 0.104182
v -0.040650 0.823370 0.098138
v -0.059014 0.823370 0.088321
v -0.075111 0.823370 0.075111
v -0.088321 0.823370 0.059015
v -0.098137 0.823370 0.040650
v -0.104182 0.823370 -0.020723
v -0.098137 0.823370 -0.040650
v -0.088321 0.823370 -0.059015
v -0.075111 0.823370 -0.075111
v -0.059014 0.823370 -0.088322
v -0.040650 0.823370 -0.098138
vt 0.4945 0.3706
vt 0.4797 0.4287
vt 0.4616 0.4240
vt 0.5111 0.3875
vt 0.4946 0.4364
vt 0.5253 0.4020
vt 0.5073 0.4461
vt 0.5381 0.4159
vt 0.5183 0.4577
vt 0.5505 0.4302
vt 0.5277 0.4711
vt 0.5629 0.4441
vt 0.5368 0.4852
vt 0.5752 0.4587
vt 0.5442 0.5011
vt 0.5879 0.4745
vt 0.5483 0.5195
vt 0.6097 0.5550
vt 0.5426 0.5420
vt 0.5916 0.5744
vt 0.5362 0.5599
vt 0.5762 0.5909
vt 0.5277 0.5744
vt 0.5618 0.6056
vt 0.5168 0.5864
vt 0.5468 0.6196
vt 0.5039 0.5961
vt 0.5322 0.6332
vt 0.4882 0.6042
vt 0.5164 0.6468
vt 0.4690 0.6107
vt 0.4990 0.6611
vt 0.4452 0.6170
vt 0.4105 0.6700
vt 0.4272 0.6107
vt 0.3938 0.6528
vt 0.4117 0.6016
vt 0.3792 0.6378
vt 0.3980 0.5910
vt 0.3658 0.6236
vt 0.3856 0.5792
vt 0.3527 0.6090
vt 0.3751 0.5658
vt 0.3392 0.5952
vt 0.3653 0.5508
vt 0.3260 0.5806
vt 0.3566 0.5339
vt 0.3120 0.5650
vt 0.3492 0.5143
vt 0.2940 0.4694
vt 0.3595 0.4930
vt 0.3146 0.4527
vt 0.3702 0.4753
vt 0.3322 0.4380
vt 0.3813 0.4603
vt 0.3484 0.4247
vt 0.3925 0.4480
vt 0.3647 0.4121
vt 0.4054 0.4383
vt 0.3804 0.3999
vt 0.4206 0.4311
vt 0.5685 0.4139
vt 0.5502 0.4299
vt 0.3970 0.3881
vt 0.4385 0.4265
vt 0.4152 0.3759
vt 0.3067 0.5993
vt 0.2835 0.5957
vt 0.2919 0.5858
vt 0.5507 0.6535
vt 0.3207 0.6127
vt 0.3799 0.3654
vt 0.3961 0.3516
vt 0.6120 0.5973
vt 0.3593 0.6554
vt 0.3318 0.4032
vt 0.5818 0.4275
vt 0.5361 0.6681
vt 0.5204 0.3530
vt 0.5325 0.3699
vt 0.4129 0.3363
vt 0.4357 0.3625
vt 0.5956 0.6114
vt 0.3468 0.6409
vt 0.3643 0.4125
vt 0.3483 0.3915
vt 0.5948 0.4411
vt 0.5211 0.6838
vt 0.2967 0.5479
vt 0.2758 0.5722
vt 0.5447 0.3852
vt 0.5804 0.6252
vt 0.3344 0.6266
vt 0.3530 0.6094
vt 0.3486 0.3913
vt 0.3641 0.3782
vt 0.6087 0.4550
vt 0.5057 0.7013
vt 0.4795 0.6773
vt 0.2773 0.4389
vt 0.2972 0.4272
vt 0.5567 0.3995
vt 0.5652 0.6385
vt 0.5472 0.6192
vt 0.3342 0.6263
vt 0.6016 0.4920
vt 0.6239 0.4693
vt 0.3719 0.6709
vt 0.3152 0.4152
vt 0.2898 0.4149
vt 0.2872 0.3691
vt 0.3076 0.4040
vt 0.6044 0.6216
vt 0.2670 0.5830
vt 0.5895 0.6350
vt 0.5754 0.6497
vt 0.5650 0.6387
vt 0.5601 0.6632
vt 0.3239 0.3925
vt 0.5459 0.6775
vt 0.5431 0.3623
vt 0.3394 0.3794
vt 0.5318 0.6933
vt 0.5543 0.3776
vt 0.3559 0.3678
vt 0.5174 0.7113
vt 0.5660 0.3916
vt 0.3713 0.3552
vt 0.3844 0.6880
vt 0.3613 0.6787
vt 0.5790 0.4049
vt 0.3867 0.3413
vt 0.3497 0.6633
vt 0.5686 0.4141
vt 0.5908 0.4192
vt 0.4027 0.3253
vt 0.3375 0.6492
vt 0.6035 0.4325
vt 0.3240 0.6360
vt 0.6174 0.4456
vt 0.3116 0.6216
vt 0.6333 0.4590
vt 0.2982 0.6085
vt 0.6303 0.5832
vt 0.6208 0.6087
vt 0.5846 0.3565
vt 0.6103 0.3230
vt 0.6175 0.3340
vt 0.6016 0.6779
vt 0.5895 0.6905
vt 0.3020 0.3597
vt 0.5779 0.7040
vt 0.5321 0.3451
vt 0.5759 0.3430
vt 0.3161 0.3493
vt 0.5672 0.7184
vt 0.3397 0.3792
vt 0.3300 0.3378
vt 0.5575 0.7340
vt 0.5943 0.3692
vt 0.3428 0.3258
vt 0.3727 0.6961
vt 0.3283 0.6988
vt 0.6048 0.3814
vt 0.3549 0.3129
vt 0.3192 0.6853
vt 0.5792 0.4051
vt 0.6164 0.3933
vt 0.3661 0.2987
vt 0.3091 0.6725
vt 0.6283 0.4041
vt 0.2982 0.6605
vt 0.6411 0.4143
vt 0.3238 0.6358
vt 0.2862 0.6487
vt 0.6550 0.4235
vt 0.2740 0.6379
vt 0.6395 0.5958
vt 0.6434 0.6441
vt 0.2608 0.6280
vt 0.6288 0.6542
vt 0.2466 0.6192
vt 0.6151 0.6654
vt 0.2556 0.3843
vt 0.2718 0.3774
vt 0.6021 0.6774
vt 0.6343 0.3551
vt 0.6659 0.3413
vt 0.6439 0.3644
vt 0.3166 0.3489
vt 0.3011 0.3055
vt 0.6045 0.7430
vt 0.5969 0.7554
vt 0.6254 0.3445
vt 0.3114 0.2953
vt 0.3362 0.7131
vt 0.2938 0.7196
vt 0.6339 0.3547
vt 0.3211 0.2847
vt 0.2864 0.7087
vt 0.6053 0.3819
vt 0.3299 0.2734
vt 0.2782 0.6981
vt 0.6539 0.3731
vt 0.2694 0.6881
vt 0.6644 0.3812
vt 0.2978 0.6600
vt 0.2591 0.6784
vt 0.6754 0.3884
vt 0.2488 0.6698
vt 0.6588 0.6353
vt 0.6666 0.6813
vt 0.2380 0.6619
vt 0.6548 0.6896
vt 0.2268 0.6549
vt 0.6434 0.6987
vt 0.2532 0.3382
vt 0.6326 0.7084
vt 0.2657 0.3314
vt 0.6222 0.7198
vt 0.2779 0.3237
vt 0.6130 0.7311
vt 0.5683 0.3288
vt 0.2897 0.3154
vt 0.6828 0.3561
vt 0.7118 0.3359
vt 0.6917 0.3626
vt 0.3034 0.2535
vt 0.2538 0.7191
vt 0.6742 0.3490
vt 0.2459 0.7107
vt 0.2689 0.6876
vt 0.2374 0.7022
vt 0.2288 0.6946
vt 0.6788 0.6739
vt 0.6857 0.7093
vt 0.2200 0.6876
vt 0.6760 0.7168
vt 0.2109 0.6812
vt 0.6666 0.7249
vt 0.2404 0.3440
vt 0.2377 0.3086
vt 0.6577 0.7337
vt 0.2480 0.3023
vt 0.6321 0.7089
vt 0.6485 0.7431
vt 0.2582 0.2954
vt 0.6403 0.7526
vt 0.6040 0.3117
vt 0.6362 0.3066
vt 0.2679 0.2878
vt 0.6328 0.7624
vt 0.6428 0.3156
vt 0.2684 0.2874
vt 0.2780 0.2796
vt 0.6259 0.7724
vt 0.6499 0.3243
vt 0.2871 0.2713
vt 0.3004 0.7309
vt 0.2679 0.7367
vt 0.6576 0.3327
vt 0.2956 0.2625
vt 0.2612 0.7277
vt 0.7009 0.7461
vt 0.7187 0.7794
vt 0.6930 0.7535
vt 0.2128 0.7281
vt 0.2056 0.7213
vt 0.7168 0.7322
vt 0.7089 0.7390
vt 0.1983 0.7147
vt 0.1911 0.7085
vt 0.2098 0.2825
vt 0.2183 0.2768
vt 0.6851 0.7611
vt 0.2269 0.2707
vt 0.6847 0.7616
vt 0.6771 0.7695
vt 0.2356 0.2644
vt 0.6698 0.7776
vt 0.6304 0.2974
vt 0.6639 0.2864
vt 0.2442 0.2578
vt 0.6628 0.7856
vt 0.6701 0.2938
vt 0.2447 0.2574
vt 0.2530 0.2504
vt 0.6561 0.7936
vt 0.6765 0.3012
vt 0.2611 0.2434
vt 0.2740 0.7458
vt 0.2404 0.7576
vt 0.6832 0.3086
vt 0.2688 0.2363
vt 0.2340 0.7502
vt 0.6836 0.3090
vt 0.6906 0.3161
vt 0.2763 0.2293
vt 0.2273 0.7428
vt 0.6977 0.3230
vt 0.2204 0.7355
vt 0.7048 0.3296
vt 0.2455 0.7103
vt 0.7033 0.7950
vt 0.7255 0.8340
vt 0.6957 0.8024
vt 0.1973 0.2492
vt 0.7114 0.7871
vt 0.2053 0.2427
vt 0.2133 0.2361
vt 0.6580 0.2790
vt 0.6875 0.2651
vt 0.2214 0.2293
vt 0.6882 0.8097
vt 0.6941 0.2719
vt 0.2302 0.2225
vt 0.6809 0.8169
vt 0.7008 0.2787
vt 0.2385 0.2161
vt 0.2465 0.7649
vt 0.2169 0.7796
vt 0.7076 0.2856
vt 0.2466 0.2098
vt 0.2102 0.7729
vt 0.7145 0.2932
vt 0.2546 0.2036
vt 0.2033 0.7661
vt 0.7210 0.3003
vt 0.1963 0.7593
vt 0.7274 0.3072
vt 0.2200 0.7351
vt 0.1892 0.7517
vt 0.7337 0.3141
vt 0.1825 0.7447
vt 0.7333 0.7643
vt 0.1759 0.7378
vt 0.7261 0.7718
vt 0.1694 0.7310
vt 0.1981 0.8140
vt 0.1802 0.8213
vt 0.1905 0.8080
vt 0.6811 0.2584
vt 0.7142 0.2374
vt 0.1951 0.1963
vt 0.7171 0.8412
vt 0.7216 0.2441
vt 0.2219 0.2289
vt 0.2041 0.1886
vt 0.7087 0.8479
vt 0.7289 0.2512
vt 0.2129 0.1818
vt 0.7358 0.2590
vt 0.2220 0.1757
vt 0.1829 0.8014
vt 0.7361 0.2593
vt 0.7436 0.2666
vt 0.2310 0.1701
vt 0.1754 0.7943
vt 0.7504 0.2742
vt 0.1683 0.7866
vt 0.7567 0.2820
vt 0.1959 0.7588
vt 0.1603 0.7791
vt 0.7626 0.2898
vt 0.1532 0.7715
vt 0.7404 0.7569
vt 0.7647 0.7927
vt 0.1467 0.7638
vt 0.7576 0.8012
vt 0.1407 0.7560
vt 0.7500 0.8094
vt 0.1625 0.2252
vt 0.1698 0.2178
vt 0.7417 0.8173
vt 0.1777 0.2103
vt 0.7109 0.7876
vt 0.7336 0.8262
vt 0.1861 0.2031
vt 0.1626 0.8080
vt 0.1227 0.8292
vt 0.1538 0.8007
vt 0.7504 0.2453
vt 0.2125 0.1598
vt 0.1714 0.8150
vt 0.7577 0.2543
vt 0.2227 0.1553
vt 0.7645 0.2632
vt 0.7706 0.2721
vt 0.1680 0.7863
vt 0.1463 0.7917
vt 0.7755 0.2811
vt 0.1393 0.7829
vt 0.7712 0.7844
vt 0.7795 0.8037
vt 0.1329 0.7740
vt 0.7727 0.8135
vt 0.1278 0.7650
vt 0.7652 0.8232
vt 0.1566 0.2053
vt 0.7573 0.8329
vt 0.1644 0.1965
vt 0.7414 0.8177
vt 0.7476 0.8413
vt 0.1728 0.1879
vt 0.7381 0.8491
vt 0.7068 0.2313
vt 0.7246 0.2244
vt 0.1816 0.1792
vt 0.7284 0.8561
vt 0.7332 0.2308
vt 0.1955 0.1961
vt 0.1921 0.1722
vt 0.7187 0.8619
vt 0.7418 0.2379
vt 0.2022 0.1656
vt 0.1021 0.8066
vt 0.0778 0.8042
vt 0.0929 0.7935
vt 0.8105 0.2536
vt 0.1225 0.8290
vt 0.1118 0.8181
vt 0.8185 0.2691
vt 0.8358 0.8114
vt 0.8240 0.8289
vt 0.8125 0.8430
vt 0.0846 0.7779
vt 0.8009 0.8553
vt 0.1499 0.2143
vt 0.1158 0.1756
vt 0.7889 0.8665
vt 0.1287 0.1632
vt 0.7886 0.8667
vt 0.7770 0.8785
vt 0.1415 0.1525
vt 0.7646 0.8893
vt 0.7332 0.1736
vt 0.7487 0.1848
vt 0.1544 0.1429
vt 0.7503 0.8995
vt 0.7611 0.1956
vt 0.1820 0.1790
vt 0.1675 0.1324
vt 0.7334 0.9088
vt 0.7719 0.2065
vt 0.1809 0.1233
vt 0.1892 0.8267
vt 0.1567 0.8618
vt 0.7817 0.2176
vt 0.1961 0.1149
vt 0.1439 0.8511
vt 0.7819 0.2179
vt 0.7922 0.2288
vt 0.2136 0.1077
vt 0.1328 0.8403
vt 0.8017 0.2404
vt 0.1016 0.1607
vt 0.1099 0.1396
vt 0.1167 0.1491
vt 0.8402 0.8423
vt 0.8263 0.8558
vt 0.0659 0.7883
vt 0.8135 0.8678
vt 0.1024 0.1914
vt 0.8012 0.8792
vt 0.8010 0.8793
vt 0.7892 0.8915
vt 0.1306 0.1388
vt 0.7767 0.9034
vt 0.7613 0.1706
vt 0.1439 0.1291
vt 0.7623 0.9159
vt 0.7731 0.1835
vt 0.1441 0.1289
vt 0.1571 0.1184
vt 0.7450 0.9290
vt 0.7836 0.1954
vt 0.1706 0.1081
vt 0.1583 0.8906
vt 0.1442 0.8764
vt 0.7936 0.2070
vt 0.1862 0.0974
vt 0.1321 0.8635
vt 0.7937 0.2071
vt 0.8044 0.2181
vt 0.2045 0.0865
vt 0.1212 0.8517
vt 0.8148 0.2297
vt 0.1110 0.8403
vt 0.8258 0.2432
vt 0.1108 0.8401
vt 0.0998 0.8291
vt 0.8372 0.2592
vt 0.0891 0.8176
vt 0.8555 0.8266
vt 0.1368 0.1190
vt 0.1278 0.0872
vt 0.1502 0.1095
vt 0.7971 0.8997
vt 0.1239 0.1299
vt 0.7853 0.9119
vt 0.7476 0.1562
vt 0.7704 0.1625
vt 0.1366 0.1192
vt 0.7711 0.9260
vt 0.7813 0.1765
vt 0.7548 0.9409
vt 0.7913 0.1886
vt 0.1632 0.0988
vt 0.1352 0.8846
vt 0.8020 0.1994
vt 0.1786 0.0866
vt 0.1239 0.8707
vt 0.8120 0.2112
vt 0.1963 0.0737
vt 0.1136 0.8587
vt 0.8228 0.2222
vt 0.1025 0.8480
vt 0.8351 0.2354
vt 0.0923 0.8363
vt 0.8483 0.2507
vt 0.0812 0.8253
vt 0.8494 0.8520
vt 0.0685 0.8123
vt 0.8343 0.8646
vt 0.0549 0.7971
vt 0.8213 0.8760
vt 0.0848 0.1742
vt 0.0937 0.1501
vt 0.8097 0.8883
vt 0.7921 0.9738
vt 0.8137 0.1723
vt 0.1350 0.0711
vt 0.1476 0.8998
vt 0.0998 0.9042
vt 0.8206 0.1816
vt 0.1488 0.0551
vt 0.0966 0.8873
vt 0.8022 0.1996
vt 0.8307 0.1889
vt 0.1633 0.0373
vt 0.0913 0.8755
vt 0.8459 0.1943
vt 0.0842 0.8663
vt 0.8617 0.2057
vt 0.1024 0.8478
vt 0.0738 0.8591
vt 0.8791 0.2176
vt 0.0583 0.8540
vt 0.8657 0.8381
vt 0.8714 0.8905
vt 0.0422 0.8427
vt 0.8529 0.8943
vt 0.0244 0.8310
vt 0.8400 0.9002
vt 0.0762 0.1618
vt 0.0766 0.1101
vt 0.8300 0.9082
vt 0.0951 0.1085
vt 0.8096 0.8885
vt 0.8223 0.9195
vt 0.1083 0.1041
vt 0.8169 0.9366
vt 0.7583 0.1473
vt 0.8058 0.1438
vt 0.1189 0.0975
vt 0.8047 0.9543
vt 0.8086 0.1606
vt 0.0622 0.0614
vt 0.0488 0.0635
vt 0.0564 0.0001
vt 0.8608 0.9626
vt 0.8528 0.9299
vt 0.8682 0.9572
vt 0.8464 0.1146
vt 0.8494 0.1268
vt 0.8452 0.9791
vt 0.8401 0.9917
vt 0.0723 0.0543
vt 0.0942 0.0767
vt 0.1083 0.9231
vt 0.0561 0.9221
vt 0.1044 0.0357
vt 0.1117 0.0265
vt 0.1180 0.0147
vt 0.8546 0.9286
vt 0.8751 0.9521
vt 0.8761 0.1636
vt 0.8851 0.1696
vt 0.8963 0.1745
vt 0.0639 0.8799
vt 0.8920 0.8807
vt 0.8918 0.9382
vt 0.0193 0.8796
vt 0.0078 0.8750
vt 0.0555 0.1172
vt 0.9043 0.9999
vt 0.0799 0.0497
vt 0.8516 0.9689
vt 0.9052 0.1169
vt 0.0871 0.0454
vt 0.8566 0.1355
vt 0.0949 0.0410
vt 0.8614 0.1421
vt 0.0593 0.9343
vt 0.0001 0.9331
vt 0.8659 0.1485
vt 0.0486 0.9134
vt 0.8705 0.1552
vt 0.0437 0.9068
vt 0.0391 0.9006
vt 0.0342 0.8939
vt 0.0285 0.8855
vt 0.9052 0.9345
vt 0.8823 0.9465
vt 0.8542 0.9219
vt 0.0956 0.0758
vt 0.8509 0.9310
vt 0.8511 0.9229
vt 0.1066 0.0743
vt 0.1028 0.0722
vt 0.0975 0.0747
vt 0.8483 0.9248
vt 0.0711 0.8910
vt 0.8378 0.1573
vt 0.0995 0.0736
vt 0.0970 0.0813
vt 0.8297 0.9085
vt 0.8463 0.9273
vt 0.8387 0.1585
vt 0.1013 0.0728
vt 0.0999 0.0808
vt 0.8453 0.9299
vt 0.8398 0.1601
vt 0.1028 0.0793
vt 0.0672 0.8911
vt 0.8409 0.1685
vt 0.8425 0.1649
vt 0.8409 0.1618
vt 0.8337 0.1602
vt 0.1193 0.0972
vt 0.1051 0.0771
vt 0.0663 0.8899
vt 0.8418 0.1636
vt 0.8345 0.1630
vt 0.0940 0.0808
vt 0.0652 0.8883
vt 0.8361 0.1655
vt 0.0640 0.8866
vt 0.0713 0.8881
vt 0.8209 0.1819
vt 0.8382 0.1673
vt 0.8490 0.9322
vt 0.0630 0.8849
vt 0.0705 0.8853
vt 0.0623 0.8836
vt 0.0689 0.8829
vt 0.8574 0.9221
vt 0.8576 0.9263
vt 0.8339 0.1573
vt 0.0838 0.8660
vt 0.0667 0.8810
vt 0.8563 0.9274
vt 0.2699 0.4253
vt 0.5752 0.6499
vt 0.6580 0.3332
vt 0.2902 0.3150
vt 0.6955 0.7025
vt 0.2273 0.3141
vt 0.6572 0.7342
vt 0.1895 0.2556
vt 0.2236 0.7862
vt 0.7080 0.2860
vt 0.7507 0.2456
vt 0.1535 0.8004
vt 0.7852 0.7939
vt 0.7570 0.8332
vt 0.7158 0.2189
vt 0.1547 0.1427
vt 0.1725 0.8727
vt 0.7976 0.1249
vn 0.0980 0.0000 -0.9952
vn 0.2903 0.0000 -0.9569
vn 0.4714 0.0000 -0.8819
vn 0.6344 0.0000 -0.7730
vn 0.7730 0.0000 -0.6344
vn 0.8819 0.0000 -0.4714
vn 0.9569 0.0000 -0.2903
vn 0.9952 0.0000 -0.0980
vn 0.9952 0.0000 0.0980
vn 0.9569 0.0000 0.2903
vn 0.8819 0.0000 0.4714
vn 0.7730 0.0000 0.6344
vn 0.6344 0.0000 0.7730
vn 0.4714 0.0000 0.8819
vn 0.2903 0.0000 0.9569
vn 0.0980 0.0000 0.9952
vn -0.0980 0.0000 0.9952
vn -0.2903 0.0000 0.9569
vn -0.4714 0.0000 0.8819
vn -0.6344 0.0000 0.7730
vn -0.7730 0.0000 0.6344
vn -0.8819 0.0000 0.4714
vn -0.9569 0.0000 0.2903
vn -0.9952 0.0000 0.0980
vn -0.9952 0.0000 -0.0980
vn -0.9569 0.0000 -0.2903
vn -0.8819 0.0000 -0.4714
vn -0.7730 0.0000 -0.6344
vn -0.6344 0.0000 -0.7730
vn -0.4714 0.0000 -0.8819
vn 0.4178 0.7524 -0.5091
vn -0.2903 0.0000 -0.9569
vn -0.0980 0.0000 -0.9952
vn 0.0000 -1.0000 0.0000
vn 0.4178 0.7524 0.5091
vn -0.5809 0.7524 0.3105
vn -0.1912 0.7524 -0.6303
vn 0.6555 0.7524 0.0646
vn -0.1912 0.7524 0.6303
vn -0.5809 0.7524 -0.3105
vn 0.5091 0.7524 -0.4178
vn 0.3105 0.7524 0.5809
vn -0.6303 0.7524 0.1912
vn 0.0646 0.7524 -0.6555
vn -0.0646 0.7524 -0.6555
vn 0.6303 0.7524 0.1912
vn -0.3105 0.7524 0.5809
vn -0.5091 0.7524 -0.4178
vn 0.5809 0.7524 -0.3105
vn 0.1912 0.7524 0.6303
vn -0.6555 0.7524 0.0646
vn 0.1912 0.7524 -0.6303
vn 0.5809 0.7524 0.3105
vn -0.4178 0.7524 0.5091
vn -0.4178 0.7524 -0.5091
vn 0.6303 0.7524 -0.1912
vn 0.0646 0.7524 0.6555
vn -0.6555 0.7524 -0.0646
vn 0.3105 0.7524 -0.5809
vn 0.5091 0.7524 0.4178
vn -0.5091 0.7524 0.4178
vn -0.3105 0.7524 -0.5809
vn 0.6555 0.7524 -0.0646
vn -0.0646 0.7524 0.6555
vn -0.6303 0.7524 -0.1912
vn -0.7246 0.6531 -0.2198
vn 0.2620 0.4307 -0.8636
vn 0.4804 0.6531 0.5854
vn -0.6678 0.6531 -0.3570
vn 0.3570 0.6531 0.6678
vn 0.0742 0.6531 -0.7536
vn -0.5854 0.6531 -0.4804
vn 0.2198 0.6531 0.7246
vn 0.2198 0.6531 -0.7246
vn -0.4804 0.6531 -0.5854
vn 0.0742 0.6531 0.7536
vn 0.3570 0.6531 -0.6678
vn -0.3570 0.6531 -0.6678
vn -0.0742 0.6531 0.7536
vn 0.4804 0.6531 -0.5854
vn -0.2198 0.6531 -0.7246
vn -0.2198 0.6531 0.7246
vn 0.5854 0.6531 -0.4804
vn -0.0742 0.6531 -0.7536
vn -0.3570 0.6531 0.6678
vn 0.6678 0.6531 -0.3570
vn -0.4804 0.6531 0.5854
vn 0.7246 0.6531 -0.2198
vn -0.5854 0.6531 0.4804
vn 0.7536 0.6531 -0.0742
vn -0.6678 0.6531 0.3570
vn 0.7536 0.6531 0.0742
vn -0.7246 0.6531 0.2198
vn 0.7246 0.6531 0.2198
vn -0.7536 0.6531 0.0742
vn 0.6678 0.6531 0.3570
vn -0.7536 0.6531 -0.0742
vn 0.5854 0.6531 0.4804
vn 0.7154 0.3788 -0.5871
vn -0.5725 0.4307 -0.6976
vn 0.0885 0.4307 0.8982
vn 0.4254 0.4307 -0.7959
vn -0.4254 0.4307 -0.7959
vn -0.0885 0.4307 0.8982
vn 0.5725 0.4307 -0.6976
vn -0.2620 0.4307 -0.8636
vn -0.2620 0.4307 0.8636
vn 0.6976 0.4307 -0.5725
vn -0.0885 0.4307 -0.8982
vn -0.4254 0.4307 0.7959
vn 0.7959 0.4307 -0.4254
vn -0.5725 0.4307 0.6976
vn 0.8636 0.4307 -0.2620
vn -0.6976 0.4307 0.5725
vn 0.8982 0.4307 -0.0885
vn -0.7959 0.4307 0.4254
vn 0.8982 0.4307 0.0885
vn -0.8636 0.4307 0.2620
vn 0.8636 0.4307 0.2620
vn -0.8982 0.4307 0.0885
vn 0.7959 0.4307 0.4254
vn -0.8982 0.4307 -0.0885
vn 0.6976 0.4307 0.5725
vn -0.8636 0.4307 -0.2620
vn 0.5725 0.4307 0.6976
vn -0.7959 0.4307 -0.4254
vn 0.4254 0.4307 0.7959
vn 0.0885 0.4307 -0.8982
vn -0.6976 0.4307 -0.5725
vn 0.2620 0.4307 0.8636
vn 0.9652 0.2436 -0.0951
vn -0.0907 0.3788 -0.9210
vn -0.4363 0.3788 0.8162
vn 0.8162 0.3788 -0.4363
vn -0.5871 0.3788 0.7154
vn 0.8856 0.3789 -0.2686
vn -0.7154 0.3788 0.5871
vn 0.9210 0.3788 -0.0907
vn -0.8162 0.3789 0.4363
vn 0.9210 0.3788 0.0907
vn -0.8856 0.3788 0.2686
vn 0.8856 0.3788 0.2686
vn -0.9210 0.3788 0.0907
vn 0.8162 0.3788 0.4363
vn -0.9210 0.3789 -0.0907
vn 0.7154 0.3788 0.5871
vn -0.8856 0.3788 -0.2686
vn 0.5871 0.3788 0.7154
vn -0.8162 0.3788 -0.4363
vn 0.4363 0.3788 0.8162
vn 0.0907 0.3788 -0.9210
vn -0.7154 0.3788 -0.5871
vn 0.2686 0.3788 0.8856
vn 0.2686 0.3788 -0.8856
vn -0.5871 0.3788 -0.7154
vn 0.0907 0.3788 0.9210
vn 0.4363 0.3788 -0.8162
vn -0.4363 0.3788 -0.8162
vn -0.0907 0.3788 0.9210
vn 0.5871 0.3788 -0.7154
vn -0.2686 0.3788 -0.8856
vn -0.2686 0.3788 0.8856
vn -0.8554 0.2436 0.4572
vn 0.9652 0.2436 0.0951
vn -0.9281 0.2436 0.2815
vn 0.9281 0.2436 0.2815
vn -0.9652 0.2436 0.0951
vn 0.8553 0.2436 0.4572
vn -0.9652 0.2436 -0.0951
vn 0.7497 0.2436 0.6153
vn -0.9281 0.2436 -0.2815
vn 0.6153 0.2436 0.7497
vn -0.8553 0.2436 -0.4572
vn 0.4572 0.2436 0.8553
vn 0.0951 0.2436 -0.9652
vn -0.7497 0.2436 -0.6153
vn 0.2815 0.2436 0.9281
vn 0.2815 0.2436 -0.9281
vn -0.6153 0.2436 -0.7497
vn 0.0951 0.2436 0.9652
vn 0.4572 0.2436 -0.8553
vn -0.4572 0.2436 -0.8553
vn -0.0951 0.2436 0.9652
vn 0.6153 0.2436 -0.7497
vn -0.2815 0.2436 -0.9281
vn -0.2815 0.2436 0.9281
vn 0.7497 0.2436 -0.6153
vn -0.0951 0.2436 -0.9652
vn -0.4572 0.2436 0.8553
vn 0.8553 0.2436 -0.4572
vn -0.6153 0.2436 0.7497
vn 0.9281 0.2436 -0.2815
vn -0.7497 0.2436 0.6153
vn 0.4711 -0.0366 0.8813
vn 0.0980 -0.0366 -0.9945
vn -0.7725 -0.0366 -0.6340
vn 0.2901 -0.0366 0.9563
vn 0.2901 -0.0366 -0.9563
vn -0.6340 -0.0366 -0.7725
vn 0.0980 -0.0366 0.9945
vn 0.4711 -0.0366 -0.8813
vn -0.4711 -0.0366 -0.8813
vn -0.0980 -0.0366 0.9945
vn 0.6340 -0.0366 -0.7725
vn -0.2901 -0.0366 -0.9563
vn -0.2901 -0.0366 0.9563
vn 0.7725 -0.0366 -0.6340
vn -0.0980 -0.0366 -0.9945
vn -0.4711 -0.0366 0.8813
vn 0.8813 -0.0366 -0.4711
vn -0.6340 -0.0366 0.7725
vn 0.9563 -0.0366 -0.2901
vn -0.7725 -0.0366 0.6340
vn 0.9945 -0.0366 -0.0979
vn -0.8813 -0.0366 0.4711
vn 0.9945 -0.0366 0.0980
vn -0.9563 -0.0366 0.2901
vn 0.9563 -0.0366 0.2901
vn -0.9945 -0.0366 0.0979
vn 0.8813 -0.0366 0.4711
vn -0.9945 -0.0366 -0.0980
vn 0.7725 -0.0366 0.6340
vn -0.9563 -0.0366 -0.2901
vn 0.6340 -0.0366 0.7725
vn -0.8813 -0.0366 -0.4711
vn -0.1033 -0.9867 0.1259
vn -0.8867 -0.3759 0.2690
vn 0.1558 -0.9867 -0.0473
vn -0.1259 -0.9867 0.1033
vn 0.1620 -0.9867 -0.0160
vn -0.1436 -0.9867 0.0767
vn 0.1620 -0.9867 0.0160
vn -0.1558 -0.9867 0.0473
vn 0.1558 -0.9867 0.0473
vn -0.1620 -0.9867 0.0160
vn 0.1436 -0.9867 0.0768
vn -0.1620 -0.9867 -0.0160
vn 0.1259 -0.9867 0.1033
vn -0.1558 -0.9867 -0.0473
vn 0.1033 -0.9867 0.1259
vn -0.1436 -0.9867 -0.0767
vn 0.0767 -0.9867 0.1436
vn 0.0160 -0.9867 -0.1620
vn -0.1259 -0.9867 -0.1033
vn 0.0473 -0.9867 0.1558
vn 0.0473 -0.9867 -0.1558
vn -0.1033 -0.9867 -0.1259
vn 0.0160 -0.9867 0.1620
vn 0.0767 -0.9867 -0.1436
vn -0.0767 -0.9867 -0.1436
vn -0.0160 -0.9867 0.1620
vn 0.1033 -0.9867 -0.1259
vn -0.0473 -0.9867 -0.1558
vn -0.0473 -0.9867 0.1558
vn 0.1259 -0.9867 -0.1033
vn -0.0160 -0.9867 -0.1620
vn -0.0767 -0.9867 0.1436
vn 0.1436 -0.9867 -0.0767
vn 0.8867 -0.3759 0.2690
vn -0.9222 -0.3759 0.0908
vn 0.8172 -0.3759 0.4368
vn -0.9222 -0.3759 -0.0908
vn 0.7163 -0.3759 0.5879
vn -0.8867 -0.3759 -0.2690
vn 0.5879 -0.3759 0.7163
vn -0.8172 -0.3759 -0.4368
vn 0.4368 -0.3759 0.8172
vn 0.0908 -0.3759 -0.9222
vn -0.7163 -0.3759 -0.5879
vn 0.2690 -0.3759 0.8867
vn 0.2690 -0.3759 -0.8867
vn -0.5879 -0.3759 -0.7163
vn 0.0908 -0.3759 0.9222
vn 0.4368 -0.3759 -0.8172
vn -0.4368 -0.3759 -0.8172
vn -0.0908 -0.3759 0.9222
vn 0.5879 -0.3759 -0.7163
vn -0.2690 -0.3759 -0.8867
vn -0.2690 -0.3759 0.8867
vn 0.7163 -0.3759 -0.5879
vn -0.0908 -0.3759 -0.9222
vn -0.4368 -0.3759 0.8172
vn 0.8172 -0.3759 -0.4368
vn -0.5879 -0.3759 0.7163
vn 0.8867 -0.3759 -0.2690
vn -0.7163 -0.3759 0.5879
vn 0.9222 -0.3759 -0.0908
vn -0.8172 -0.3759 0.4368
vn 0.9222 -0.3759 0.0908
vn 0.0066 1.0000 0.0006
vn 0.0015 0.9999 -0.0156
vn 0.0045 0.9999 0.0150
vn 0.0015 0.9999 0.0156
vn -0.0015 0.9999 0.0156
vn -0.0045 0.9999 -0.0150
vn -0.0015 0.9999 -0.0156
vn 0.0150 0.9999 -0.0045
vn 0.0156 0.9999 -0.0015
vn 0.0156 0.9999 0.0015
vn -0.0150 0.9999 0.0045
vn -0.0156 0.9999 0.0015
vn -0.0156 0.9999 -0.0015
vn -0.0051 1.0000 -0.0042
vn 0.0063 1.0000 0.0019
vn -0.0042 1.0000 -0.0051
vn 0.0058 1.0000 0.0031
vn -0.0031 1.0000 -0.0058
vn -0.0006 1.0000 0.0066
vn 0.0051 1.0000 0.0042
vn -0.0019 1.0000 -0.0063
vn -0.0019 1.0000 0.0063
vn 0.0042 1.0000 0.0051
vn -0.0006 1.0000 -0.0066
vn -0.0031 1.0000 0.0058
vn 0.0031 1.0000 0.0058
vn 0.0006 1.0000 -0.0066
vn -0.0042 1.0000 0.0051
vn 0.0019 1.0000 0.0063
vn 0.0019 1.0000 -0.0063
vn -0.0051 1.0000 0.0042
vn 0.0006 1.0000 0.0066
vn 0.0031 1.0000 -0.0058
vn -0.0058 1.0000 0.0031
vn 0.0042 1.0000 -0.0051
vn -0.0063 1.0000 0.0019
vn 0.0051 1.0000 -0.0042
vn -0.0066 1.0000 0.0006
vn 0.0058 1.0000 -0.0031
vn -0.0066 1.0000 -0.0006
vn 0.0063 1.0000 -0.0019
vn -0.0063 1.0000 -0.0019
vn 0.0066 1.0000 -0.0006
vn -0.0058 1.0000 -0.0031
vn 0.9239 0.0000 -0.3827
vn 0.9808 0.0000 0.1951
vn 0.3827 0.0000 0.9239
vn -0.1951 0.0000 0.9808
vn -0.9239 0.0000 0.3827
vn -0.3827 0.0000 -0.9239
vn 0.1951 0.0000 -0.9808
vn -0.9808 0.0000 -0.1951
vn 0.0099 0.9999 -0.0121
vn 0.0138 0.9999 0.0074
vn -0.0074 0.9999 0.0138
vn -0.0138 0.9999 -0.0074
vn 0.8856 0.3788 -0.2686
vn 0.9210 0.3789 -0.0907
vn -0.8162 0.3788 0.4363
vn -0.8856 0.3789 0.2686
vn -0.9210 0.3788 -0.0907
vn -0.8856 0.3789 -0.2686
vn -0.8553 0.2436 0.4572
vn 0.9945 -0.0366 -0.0980
vn 0.9945 -0.0366 0.0979
vn 0.1436 -0.9867 0.0767
vn 0.1436 -0.9867 -0.0768
vn 0.0121 0.9999 -0.0099
vn 0.0074 0.9999 -0.0138
vn 0.0045 0.9999 -0.0150
vn 0.0138 0.9999 -0.0074
vn 0.0150 0.9999 0.0045
vn 0.0121 0.9999 0.0099
vn 0.0074 0.9999 0.0138
vn 0.0099 0.9999 0.0121
vn -0.0045 0.9999 0.0150
vn -0.0099 0.9999 0.0121
vn -0.0138 0.9999 0.0074
vn -0.0121 0.9999 0.0099
vn -0.0150 0.9999 -0.0045
vn -0.0121 0.9999 -0.0099
vn -0.0074 0.9999 -0.0138
vn -0.0099 0.9999 -0.0121
s off
f 2/1/1 3/2/1 1/3/1
f 4/4/2 5/5/2 3/2/2
f 6/6/3 7/7/3 5/5/3
f 8/8/4 9/9/4 7/7/4
f 10/10/5 11/11/5 9/9/5
f 12/12/6 13/13/6 11/11/6
f 14/14/7 15/15/7 13/13/7
f 16/16/8 17/17/8 15/15/8
f 18/18/9 19/19/9 17/17/9
f 20/20/10 21/21/10 19/19/10
f 22/22/11 23/23/11 21/21/11
f 24/24/12 25/25/12 23/23/12
f 26/26/13 27/27/13 25/25/13
f 28/28/14 29/29/14 27/27/14
f 30/30/15 31/31/15 29/29/15
f 32/32/16 33/33/16 31/31/16
f 34/34/17 35/35/17 33/33/17
f 36/36/18 37/37/18 35/35/18
f 38/38/19 39/39/19 37/37/19
f 40/40/20 41/41/20 39/39/20
f 42/42/21 43/43/21 41/41/21
f 44/44/22 45/45/22 43/43/22
f 46/46/23 47/47/23 45/45/23
f 48/48/24 49/49/24 47/47/24
f 50/50/25 51/51/25 49/49/25
f 52/52/26 53/53/26 51/51/26
f 54/54/27 55/55/27 53/53/27
f 56/56/28 57/57/28 55/55/28
f 58/58/29 59/59/29 57/57/29
f 60/60/30 61/61/30 59/59/30
f 8/8/31 69/62/31 10/63/31
f 62/64/32 63/65/32 61/61/32
f 64/66/33 1/3/33 63/65/33
f 31/31/34 47/47/34 15/15/34
f 87/67/23 120/68/23 88/69/23
f 26/26/35 78/70/35 28/28/35
f 46/46/36 86/71/36 87/67/36
f 64/66/37 95/72/37 96/73/37
f 18/18/38 74/74/38 20/20/38
f 36/36/39 83/75/39 38/38/39
f 54/54/40 92/76/40 56/56/40
f 10/10/41 70/77/41 12/12/41
f 28/28/42 79/78/42 30/30/42
f 46/46/43 88/69/43 48/48/43
f 4/4/44 65/79/44 66/80/44
f 64/66/45 65/81/45 2/82/45
f 20/20/46 75/83/46 22/22/46
f 38/38/47 84/84/47 40/40/47
f 58/85/48 92/76/48 93/86/48
f 12/12/49 71/87/49 14/14/49
f 30/30/50 80/88/50 32/32/50
f 50/89/51 88/69/51 89/90/51
f 4/4/52 67/91/52 6/6/52
f 24/24/53 75/83/53 76/92/53
f 40/40/54 85/93/54 42/94/54
f 60/60/55 93/95/55 94/96/55
f 16/16/56 71/87/56 72/97/56
f 32/32/57 81/98/57 34/99/57
f 52/52/58 89/100/58 90/101/58
f 6/6/59 68/102/59 8/8/59
f 24/24/60 77/103/60 26/104/60
f 44/44/61 85/105/61 86/71/61
f 62/64/62 94/96/62 95/72/62
f 18/106/63 72/97/63 73/107/63
f 34/34/64 82/108/64 36/36/64
f 54/54/65 90/101/65 91/109/65
f 122/110/66 155/111/66 123/112/66
f 74/74/10 107/113/10 75/83/10
f 88/69/24 121/114/24 89/90/24
f 75/83/11 108/115/11 76/92/11
f 89/100/25 122/110/25 90/101/25
f 76/92/12 109/116/12 77/103/12
f 90/101/26 123/112/26 91/109/26
f 77/117/13 110/118/13 78/70/13
f 91/109/27 124/119/27 92/76/27
f 78/70/14 111/120/14 79/78/14
f 65/79/1 98/121/1 66/80/1
f 92/76/28 125/122/28 93/86/28
f 79/78/15 112/123/15 80/88/15
f 66/80/2 99/124/2 67/91/2
f 93/95/29 126/125/29 94/96/29
f 80/88/16 113/126/16 81/98/16
f 67/91/3 100/127/3 68/102/3
f 94/96/30 127/128/30 95/72/30
f 81/129/17 114/130/17 82/108/17
f 68/102/4 101/131/4 69/62/4
f 95/72/32 128/132/32 96/73/32
f 82/108/18 115/133/18 83/75/18
f 69/134/5 102/135/5 70/77/5
f 96/73/33 97/136/33 65/81/33
f 83/75/19 116/137/19 84/84/19
f 70/77/6 103/138/6 71/87/6
f 84/84/20 117/139/20 85/93/20
f 71/87/7 104/140/7 72/97/7
f 85/105/21 118/141/21 86/71/21
f 72/97/8 105/142/8 73/107/8
f 86/71/22 119/143/22 87/67/22
f 73/144/9 106/145/9 74/74/9
f 131/146/67 162/147/67 163/148/67
f 110/118/68 141/149/68 142/150/68
f 124/119/69 155/111/69 156/151/69
f 111/120/70 142/150/70 143/152/70
f 97/153/71 130/154/71 98/121/71
f 124/119/72 157/155/72 125/122/72
f 112/123/73 143/152/73 144/156/73
f 98/121/74 131/146/74 99/124/74
f 125/157/75 158/158/75 126/125/75
f 112/123/76 145/159/76 113/126/76
f 99/124/77 132/160/77 100/127/77
f 126/125/78 159/161/78 127/128/78
f 113/162/79 146/163/79 114/130/79
f 100/127/80 133/164/80 101/131/80
f 127/128/81 160/165/81 128/132/81
f 115/133/82 146/163/82 147/166/82
f 101/167/83 134/168/83 102/135/83
f 128/132/84 129/169/84 97/136/84
f 116/137/85 147/166/85 148/170/85
f 102/135/86 135/171/86 103/138/86
f 116/137/87 149/172/87 117/139/87
f 104/140/88 135/171/88 136/173/88
f 117/174/89 150/175/89 118/141/89
f 105/142/90 136/173/90 137/176/90
f 119/143/91 150/175/91 151/177/91
f 105/178/92 138/179/92 106/145/92
f 119/143/93 152/180/93 120/68/93
f 106/145/94 139/181/94 107/113/94
f 121/114/95 152/180/95 153/182/95
f 107/113/96 140/183/96 108/115/96
f 122/110/97 153/184/97 154/185/97
f 109/116/98 140/183/98 141/186/98
f 165/187/99 198/188/99 166/189/99
f 157/190/100 190/191/100 158/158/100
f 145/159/101 176/192/101 177/193/101
f 131/146/102 164/194/102 132/160/102
f 158/158/103 191/195/103 159/161/103
f 145/196/104 178/197/104 146/163/104
f 133/164/105 164/194/105 165/198/105
f 160/165/106 191/195/106 192/199/106
f 147/166/107 178/197/107 179/200/107
f 133/201/108 166/189/108 134/168/108
f 129/169/109 192/199/109 161/202/109
f 147/166/110 180/203/110 148/170/110
f 134/168/111 167/204/111 135/171/111
f 149/172/112 180/203/112 181/205/112
f 135/171/113 168/206/113 136/173/113
f 149/207/114 182/208/114 150/175/114
f 137/176/115 168/206/115 169/209/115
f 150/175/116 183/210/116 151/177/116
f 137/211/117 170/212/117 138/179/117
f 151/177/118 184/213/118 152/180/118
f 138/179/119 171/214/119 139/181/119
f 153/182/120 184/213/120 185/215/120
f 139/181/121 172/216/121 140/183/121
f 153/184/122 186/217/122 154/185/122
f 141/186/123 172/216/123 173/218/123
f 155/111/124 186/217/124 187/219/124
f 141/149/125 174/220/125 142/150/125
f 155/111/126 188/221/126 156/151/126
f 142/150/127 175/222/127 143/152/127
f 129/223/128 162/147/128 130/154/128
f 156/151/129 189/224/129 157/155/129
f 144/156/130 175/222/130 176/192/130
f 200/225/131 233/226/131 201/227/131
f 192/199/132 193/228/132 161/202/132
f 179/200/133 212/229/133 180/203/133
f 166/189/134 199/230/134 167/204/134
f 181/205/135 212/229/135 213/231/135
f 167/204/136 200/225/136 168/206/136
f 181/232/137 214/233/137 182/208/137
f 168/206/138 201/227/138 169/209/138
f 182/208/139 215/234/139 183/210/139
f 169/235/140 202/236/140 170/212/140
f 183/210/141 216/237/141 184/213/141
f 171/214/142 202/236/142 203/238/142
f 184/213/143 217/239/143 185/215/143
f 172/216/144 203/238/144 204/240/144
f 185/241/145 218/242/145 186/217/145
f 173/218/146 204/240/146 205/243/146
f 187/219/147 218/242/147 219/244/147
f 173/245/148 206/246/148 174/220/148
f 187/219/149 220/247/149 188/221/149
f 175/222/150 206/246/150 207/248/150
f 161/249/151 194/250/151 162/147/151
f 189/224/152 220/247/152 221/251/152
f 175/222/153 208/252/153 176/192/153
f 162/147/154 195/253/154 163/148/154
f 190/191/155 221/254/155 222/255/155
f 176/192/156 209/256/156 177/193/156
f 163/148/157 196/257/157 164/194/157
f 190/191/158 223/258/158 191/195/158
f 177/259/159 210/260/159 178/197/159
f 164/194/160 197/261/160 165/198/160
f 191/195/161 224/262/161 192/199/161
f 178/197/162 211/263/162 179/200/162
f 235/264/11 268/265/11 236/266/11
f 215/234/163 246/267/163 247/268/163
f 202/236/164 233/269/164 234/270/164
f 216/237/165 247/268/165 248/271/165
f 202/236/166 235/264/166 203/238/166
f 217/239/167 248/271/167 249/272/167
f 203/238/168 236/266/168 204/240/168
f 218/242/169 249/273/169 250/274/169
f 204/240/170 237/275/170 205/243/170
f 218/242/171 251/276/171 219/244/171
f 206/246/172 237/277/172 238/278/172
f 219/244/173 252/279/173 220/247/173
f 206/246/174 239/280/174 207/248/174
f 193/281/175 226/282/175 194/250/175
f 221/251/176 252/279/176 253/283/176
f 207/248/177 240/284/177 208/252/177
f 195/253/178 226/282/178 227/285/178
f 222/255/179 253/286/179 254/287/179
f 208/252/180 241/288/180 209/256/180
f 196/257/181 227/285/181 228/289/181
f 223/258/182 254/287/182 255/290/182
f 209/291/183 242/292/183 210/260/183
f 196/257/184 229/293/184 197/261/184
f 224/262/185 255/290/185 256/294/185
f 210/260/186 243/295/186 211/263/186
f 198/188/187 229/296/187 230/297/187
f 193/228/188 256/294/188 225/298/188
f 211/263/189 244/299/189 212/229/189
f 198/188/190 231/300/190 199/230/190
f 213/231/191 244/299/191 245/301/191
f 199/230/192 232/302/192 200/225/192
f 213/303/193 246/267/193 214/233/193
f 270/304/194 303/305/194 271/306/194
f 249/273/25 282/307/25 250/274/25
f 236/266/12 269/308/12 237/275/12
f 250/274/26 283/309/26 251/276/26
f 237/277/13 270/304/13 238/278/13
f 251/276/27 284/310/27 252/279/27
f 238/278/14 271/306/14 239/280/14
f 225/311/1 258/312/1 226/282/1
f 252/279/28 285/313/28 253/283/28
f 239/280/15 272/314/15 240/284/15
f 226/282/2 259/315/2 227/285/2
f 253/286/29 286/316/29 254/287/29
f 240/284/16 273/317/16 241/288/16
f 227/285/3 260/318/3 228/289/3
f 254/287/30 287/319/30 255/290/30
f 241/320/17 274/321/17 242/292/17
f 228/289/4 261/322/4 229/293/4
f 255/290/32 288/323/32 256/294/32
f 242/292/18 275/324/18 243/295/18
f 229/296/5 262/325/5 230/297/5
f 256/294/33 257/326/33 225/298/33
f 243/295/19 276/327/19 244/299/19
f 230/297/6 263/328/6 231/300/6
f 244/299/20 277/329/20 245/301/20
f 231/300/7 264/330/7 232/302/7
f 245/331/21 278/332/21 246/267/21
f 232/302/8 265/333/8 233/226/8
f 246/267/22 279/334/22 247/268/22
f 233/269/9 266/335/9 234/270/9
f 247/268/23 280/336/23 248/271/23
f 234/270/10 267/337/10 235/264/10
f 248/271/24 281/338/24 249/272/24
f 305/339/17 338/340/17 306/341/17
f 257/342/195 290/343/195 258/312/195
f 284/310/196 317/344/196 285/313/196
f 271/306/197 304/345/197 272/314/197
f 259/315/198 290/343/198 291/346/198
f 285/347/199 318/348/199 286/316/199
f 272/314/200 305/349/200 273/317/200
f 259/315/201 292/350/201 260/318/201
f 286/316/202 319/351/202 287/319/202
f 274/321/203 305/339/203 306/341/203
f 260/318/204 293/352/204 261/322/204
f 287/319/205 320/353/205 288/323/205
f 275/324/206 306/341/206 307/354/206
f 262/325/207 293/355/207 294/356/207
f 288/323/208 289/357/208 257/326/208
f 275/324/209 308/358/209 276/327/209
f 262/325/210 295/359/210 263/328/210
f 277/329/211 308/358/211 309/360/211
f 264/330/212 295/359/212 296/361/212
f 277/362/213 310/363/213 278/332/213
f 265/333/214 296/361/214 297/364/214
f 278/332/215 311/365/215 279/334/215
f 265/366/216 298/367/216 266/335/216
f 279/334/217 312/368/217 280/336/217
f 266/335/218 299/369/218 267/337/218
f 280/336/219 313/370/219 281/338/219
f 267/337/220 300/371/220 268/265/220
f 282/307/221 313/372/221 314/373/221
f 268/265/222 301/374/222 269/308/222
f 282/307/223 315/375/223 283/309/223
f 269/376/224 302/377/224 270/304/224
f 284/310/225 315/375/225 316/378/225
f 340/379/226 373/380/226 341/381/226
f 292/350/4 325/382/4 293/352/4
f 319/351/32 352/383/32 320/353/32
f 306/341/18 339/384/18 307/354/18
f 293/355/5 326/385/5 294/356/5
f 320/353/33 321/386/33 289/357/33
f 307/354/19 340/379/19 308/358/19
f 294/356/6 327/387/6 295/359/6
f 308/358/20 341/381/20 309/360/20
f 295/359/7 328/388/7 296/361/7
f 309/389/21 342/390/21 310/363/21
f 296/361/8 329/391/8 297/364/8
f 310/363/22 343/392/22 311/365/22
f 297/393/9 330/394/9 298/367/9
f 311/365/23 344/395/23 312/368/23
f 298/367/10 331/396/10 299/369/10
f 312/368/24 345/397/24 313/370/24
f 299/369/11 332/398/11 300/371/11
f 313/372/25 346/399/25 314/373/25
f 300/371/12 333/400/12 301/374/12
f 314/373/26 347/401/26 315/375/26
f 301/402/13 334/403/13 302/377/13
f 315/375/27 348/404/27 316/378/27
f 302/377/14 335/405/14 303/305/14
f 289/406/1 322/407/1 290/343/1
f 316/378/28 349/408/28 317/344/28
f 303/305/15 336/409/15 304/345/15
f 290/343/2 323/410/2 291/346/2
f 317/411/29 350/412/29 318/348/29
f 304/345/16 337/413/16 305/349/16
f 291/346/3 324/414/3 292/350/3
f 318/348/30 351/415/30 319/351/30
f 375/416/227 408/417/227 376/418/227
f 327/387/228 360/419/228 328/388/228
f 342/390/229 373/420/229 374/421/229
f 328/388/230 361/422/230 329/391/230
f 342/390/231 375/416/231 343/392/231
f 330/394/232 361/423/232 362/424/232
f 344/395/233 375/416/233 376/418/233
f 330/394/234 363/425/234 331/396/234
f 344/395/235 377/426/235 345/397/235
f 331/396/236 364/427/236 332/398/236
f 345/428/237 378/429/237 346/399/237
f 332/398/238 365/430/238 333/400/238
f 347/401/239 378/429/239 379/431/239
f 334/403/240 365/432/240 366/433/240
f 347/401/241 380/434/241 348/404/241
f 334/403/242 367/435/242 335/405/242
f 322/407/243 353/436/243 354/437/243
f 348/404/244 381/438/244 349/408/244
f 336/409/245 367/435/245 368/439/245
f 323/410/246 354/437/246 355/440/246
f 349/441/247 382/442/247 350/412/247
f 336/409/248 369/443/248 337/413/248
f 323/410/249 356/444/249 324/414/249
f 351/415/250 382/442/250 383/445/250
f 337/446/251 370/447/251 338/340/251
f 324/414/252 357/448/252 325/382/252
f 351/415/253 384/449/253 352/383/253
f 338/340/254 371/450/254 339/384/254
f 326/385/255 357/451/255 358/452/255
f 352/383/256 353/453/256 321/386/256
f 340/379/257 371/450/257 372/454/257
f 327/387/258 358/452/258 359/455/258
f 410/456/26 443/457/26 411/458/26
f 363/425/259 394/459/259 395/460/259
f 376/418/260 409/461/260 377/426/260
f 363/425/261 396/462/261 364/427/261
f 377/463/262 410/456/262 378/429/262
f 364/427/263 397/464/263 365/430/263
f 378/429/264 411/458/264 379/431/264
f 366/433/265 397/465/265 398/466/265
f 379/431/266 412/467/266 380/434/266
f 367/435/267 398/466/267 399/468/267
f 353/436/268 386/469/268 354/437/268
f 380/434/269 413/470/269 381/438/269
f 367/435/270 400/471/270 368/439/270
f 354/437/271 387/472/271 355/440/271
f 382/442/272 413/473/272 414/474/272
f 369/443/273 400/471/273 401/475/273
f 355/440/274 388/476/274 356/444/274
f 382/442/275 415/477/275 383/445/275
f 370/447/276 401/478/276 402/479/276
f 356/444/277 389/480/277 357/448/277
f 383/445/278 416/481/278 384/449/278
f 371/450/279 402/479/279 403/482/279
f 358/452/280 389/483/280 390/484/280
f 384/449/281 385/485/281 353/453/281
f 372/454/282 403/482/282 404/486/282
f 359/455/283 390/484/283 391/487/283
f 373/380/284 404/486/284 405/488/284
f 359/455/285 392/489/285 360/419/285
f 374/421/286 405/490/286 406/491/286
f 361/422/287 392/489/287 393/492/287
f 374/421/288 407/493/288 375/416/288
f 362/424/289 393/494/289 394/459/289
f 445/495/29 478/496/29 446/497/29
f 397/465/13 430/498/13 398/466/13
f 411/458/27 444/499/27 412/467/27
f 398/466/14 431/500/14 399/468/14
f 385/501/1 418/502/1 386/469/1
f 412/467/28 445/503/28 413/470/28
f 399/468/15 432/504/15 400/471/15
f 386/469/2 419/505/2 387/472/2
f 413/473/29 446/497/29 414/474/29
f 400/471/16 433/506/16 401/475/16
f 387/472/3 420/507/3 388/476/3
f 414/474/30 447/508/30 415/477/30
f 401/478/17 434/509/17 402/479/17
f 388/476/4 421/510/4 389/480/4
f 415/477/32 448/511/32 416/481/32
f 402/479/18 435/512/18 403/482/18
f 389/483/5 422/513/5 390/484/5
f 416/481/33 417/514/33 385/485/33
f 403/482/19 436/515/19 404/486/19
f 390/484/6 423/516/6 391/487/6
f 404/486/20 437/517/20 405/488/20
f 391/487/7 424/518/7 392/489/7
f 405/490/21 438/519/21 406/491/21
f 392/489/8 425/520/8 393/492/8
f 406/491/22 439/521/22 407/493/22
f 393/494/9 426/522/9 394/459/9
f 407/493/23 440/523/23 408/417/23
f 394/459/10 427/524/10 395/460/10
f 408/417/24 441/525/24 409/461/24
f 395/460/11 428/526/11 396/462/11
f 409/527/25 442/528/25 410/456/25
f 396/462/12 429/529/12 397/464/12
f 432/504/16 465/530/16 433/506/16
f 419/505/3 452/531/3 420/507/3
f 446/497/30 479/532/30 447/508/30
f 433/533/17 466/534/17 434/509/17
f 420/507/4 453/535/4 421/510/4
f 447/508/32 480/536/32 448/511/32
f 434/509/18 467/537/18 435/512/18
f 421/538/5 454/539/5 422/513/5
f 448/511/33 449/540/33 417/514/33
f 435/512/19 468/541/19 436/515/19
f 422/513/6 455/542/6 423/516/6
f 436/515/20 469/543/20 437/517/20
f 423/516/7 456/544/7 424/518/7
f 437/545/21 470/546/21 438/519/21
f 424/518/8 457/547/8 425/520/8
f 438/519/22 471/548/22 439/521/22
f 425/549/9 458/550/9 426/522/9
f 439/521/23 472/551/23 440/523/23
f 426/522/10 459/552/10 427/524/10
f 440/523/24 473/553/24 441/525/24
f 427/524/11 460/554/11 428/526/11
f 441/555/25 474/556/25 442/528/25
f 428/526/12 461/557/12 429/529/12
f 442/528/26 475/558/26 443/457/26
f 429/559/13 462/560/13 430/498/13
f 443/457/27 476/561/27 444/499/27
f 430/498/14 463/562/14 431/500/14
f 417/563/1 450/564/1 418/502/1
f 444/499/28 477/565/28 445/503/28
f 431/500/15 464/566/15 432/504/15
f 418/502/2 451/567/2 419/505/2
f 506/568/290 505/569/290 513/570/290
f 494/571/29 547/572/29 493/573/29
f 450/564/291 481/574/291 482/575/291
f 463/562/292 496/576/292 464/566/292
f 464/566/293 497/577/293 465/530/293
f 507/578/10 556/579/10 506/568/10
f 465/580/294 498/581/294 466/534/294
f 480/536/295 511/582/295 512/583/295
f 480/536/296 481/584/296 449/540/296
f 493/573/28 546/585/28 492/586/28
f 456/544/297 487/587/297 488/588/297
f 456/544/298 489/589/298 457/547/298
f 470/546/22 531/590/22 471/548/22
f 457/591/299 490/592/299 458/550/299
f 471/548/300 504/593/300 472/551/300
f 472/551/301 505/594/301 473/553/301
f 473/595/302 506/568/302 474/556/302
f 493/573/303 492/586/303 513/596/303
f 507/578/304 506/568/304 513/570/304
f 494/571/305 493/573/305 513/596/305
f 508/597/306 507/578/306 513/570/306
f 495/598/307 494/571/307 513/596/307
f 482/575/308 481/574/308 513/599/308
f 509/600/309 508/597/309 513/570/309
f 496/576/310 495/598/310 513/596/310
f 483/601/311 482/575/311 513/599/311
f 510/602/312 509/600/312 513/570/312
f 497/577/313 496/576/313 513/596/313
f 484/603/314 483/601/314 513/599/314
f 511/582/315 510/602/315 513/570/315
f 498/581/316 497/604/316 513/605/316
f 485/606/317 484/603/317 513/599/317
f 512/583/318 511/582/318 513/570/318
f 499/607/319 498/581/319 513/605/319
f 486/608/320 485/606/320 513/599/320
f 481/584/321 512/583/321 513/570/321
f 500/609/322 499/607/322 513/605/322
f 487/587/323 486/608/323 513/599/323
f 501/610/324 500/609/324 513/605/324
f 488/588/325 487/587/325 513/599/325
f 502/611/326 501/610/326 513/605/326
f 489/589/327 488/588/327 513/599/327
f 503/612/328 502/611/328 513/605/328
f 490/592/329 489/613/329 513/596/329
f 504/593/330 503/612/330 513/605/330
f 491/614/331 490/592/331 513/596/331
f 505/594/332 504/593/332 513/605/332
f 492/586/333 491/614/333 513/596/333
f 458/550/10 521/615/10 459/552/10
f 508/597/11 557/616/11 507/578/11
f 495/598/30 548/617/30 494/571/30
f 459/552/11 522/618/11 460/554/11
f 511/582/334 537/619/334 561/620/334
f 509/600/12 558/621/12 508/597/12
f 460/554/12 523/622/12 461/557/12
f 498/581/335 526/623/335 466/534/335
f 483/601/18 538/624/18 482/575/18
f 510/602/13 559/625/13 509/600/13
f 474/556/26 533/626/26 475/558/26
f 461/627/13 524/628/13 462/560/13
f 484/603/19 539/629/19 483/601/19
f 511/582/14 560/630/14 510/602/14
f 475/558/27 534/631/27 476/561/27
f 462/560/14 525/632/14 463/562/14
f 485/606/20 540/633/20 484/603/20
f 476/561/28 535/634/28 477/565/28
f 499/607/2 550/635/2 498/581/2
f 487/587/336 519/636/336 543/637/336
f 486/608/21 541/638/21 485/606/21
f 450/564/2 515/639/2 451/567/2
f 477/640/29 536/641/29 478/496/29
f 500/609/3 551/642/3 499/607/3
f 487/587/22 542/643/22 486/608/22
f 451/567/3 516/644/3 452/531/3
f 506/568/337 532/645/337 474/556/337
f 478/496/30 537/619/30 479/532/30
f 501/610/4 552/646/4 500/609/4
f 452/531/4 517/647/4 453/535/4
f 502/611/5 553/648/5 501/610/5
f 466/534/18 527/649/18 467/537/18
f 453/650/5 518/651/5 454/539/5
f 495/598/338 525/632/338 549/652/338
f 503/612/6 554/653/6 502/611/6
f 467/537/19 528/654/19 468/541/19
f 503/612/339 531/590/339 555/655/339
f 454/539/6 519/636/6 455/542/6
f 468/541/20 529/656/20 469/543/20
f 490/592/340 520/657/340 458/550/340
f 491/614/26 544/658/26 490/592/26
f 482/575/341 514/659/341 450/564/341
f 469/660/21 530/661/21 470/546/21
f 492/586/27 545/662/27 491/614/27
f 540/633/342 541/638/342 517/647/342
f 546/585/343 522/618/343 521/615/343
f 552/646/344 528/654/344 527/649/344
f 558/621/345 534/631/345 533/626/345
f 2/1/1 4/4/1 3/2/1
f 4/4/2 6/6/2 5/5/2
f 6/6/3 8/8/3 7/7/3
f 8/8/4 10/63/4 9/9/4
f 10/10/5 12/12/5 11/11/5
f 12/12/6 14/14/6 13/13/6
f 14/14/7 16/16/7 15/15/7
f 16/16/8 18/106/8 17/17/8
f 18/18/9 20/20/9 19/19/9
f 20/20/10 22/22/10 21/21/10
f 22/22/11 24/24/11 23/23/11
f 24/24/12 26/104/12 25/25/12
f 26/26/13 28/28/13 27/27/13
f 28/28/14 30/30/14 29/29/14
f 30/30/15 32/32/15 31/31/15
f 32/32/16 34/99/16 33/33/16
f 34/34/17 36/36/17 35/35/17
f 36/36/18 38/38/18 37/37/18
f 38/38/19 40/40/19 39/39/19
f 40/40/20 42/94/20 41/41/20
f 42/42/21 44/44/21 43/43/21
f 44/44/22 46/46/22 45/45/22
f 46/46/23 48/48/23 47/47/23
f 48/48/24 50/89/24 49/49/24
f 50/50/25 52/52/25 51/51/25
f 52/52/26 54/54/26 53/53/26
f 54/54/27 56/56/27 55/55/27
f 56/56/28 58/85/28 57/57/28
f 58/58/29 60/60/29 59/59/29
f 60/60/30 62/64/30 61/61/30
f 8/8/31 68/102/31 69/62/31
f 62/64/32 64/66/32 63/65/32
f 64/66/33 2/82/33 1/3/33
f 63/65/34 1/3/34 3/2/34
f 3/2/34 5/5/34 7/7/34
f 7/7/34 9/9/34 11/11/34
f 11/11/34 13/13/34 7/7/34
f 15/15/34 17/17/34 23/23/34
f 19/19/34 21/21/34 23/23/34
f 23/23/34 25/25/34 31/31/34
f 27/27/34 29/29/34 31/31/34
f 31/31/34 33/33/34 35/35/34
f 35/35/34 37/37/34 31/31/34
f 39/39/34 41/41/34 43/43/34
f 43/43/34 45/45/34 47/47/34
f 47/47/34 49/49/34 51/51/34
f 51/51/34 53/53/34 47/47/34
f 55/55/34 57/57/34 59/59/34
f 59/59/34 61/61/34 63/65/34
f 63/65/34 3/2/34 15/15/34
f 7/7/34 13/13/34 15/15/34
f 17/17/34 19/19/34 23/23/34
f 25/25/34 27/27/34 31/31/34
f 31/31/34 37/37/34 39/39/34
f 39/39/34 43/43/34 31/31/34
f 47/47/34 53/53/34 55/55/34
f 55/55/34 59/59/34 47/47/34
f 3/2/34 7/7/34 15/15/34
f 15/15/34 23/23/34 31/31/34
f 31/31/34 43/43/34 47/47/34
f 47/47/34 59/59/34 63/65/34
f 63/65/34 15/15/34 47/47/34
f 87/67/23 119/143/23 120/68/23
f 26/26/35 77/117/35 78/70/35
f 46/46/36 44/44/36 86/71/36
f 64/66/37 62/64/37 95/72/37
f 18/18/38 73/144/38 74/74/38
f 36/36/39 82/108/39 83/75/39
f 54/54/40 91/109/40 92/76/40
f 10/10/41 69/134/41 70/77/41
f 28/28/42 78/70/42 79/78/42
f 46/46/43 87/67/43 88/69/43
f 4/4/44 2/1/44 65/79/44
f 64/66/45 96/73/45 65/81/45
f 20/20/46 74/74/46 75/83/46
f 38/38/47 83/75/47 84/84/47
f 58/85/48 56/56/48 92/76/48
f 12/12/49 70/77/49 71/87/49
f 30/30/50 79/78/50 80/88/50
f 50/89/51 48/48/51 88/69/51
f 4/4/52 66/80/52 67/91/52
f 24/24/53 22/22/53 75/83/53
f 40/40/54 84/84/54 85/93/54
f 60/60/55 58/58/55 93/95/55
f 16/16/56 14/14/56 71/87/56
f 32/32/57 80/88/57 81/98/57
f 52/52/58 50/50/58 89/100/58
f 6/6/59 67/91/59 68/102/59
f 24/24/60 76/92/60 77/103/60
f 44/44/61 42/42/61 85/105/61
f 62/64/62 60/60/62 94/96/62
f 18/106/63 16/16/63 72/97/63
f 34/34/64 81/129/64 82/108/64
f 54/54/65 52/52/65 90/101/65
f 122/110/66 154/185/66 155/111/66
f 74/74/10 106/145/10 107/113/10
f 88/69/24 120/68/24 121/114/24
f 75/83/11 107/113/11 108/115/11
f 89/100/25 121/663/25 122/110/25
f 76/92/12 108/115/12 109/116/12
f 90/101/26 122/110/26 123/112/26
f 77/117/13 109/664/13 110/118/13
f 91/109/27 123/112/27 124/119/27
f 78/70/14 110/118/14 111/120/14
f 65/79/1 97/153/1 98/121/1
f 92/76/28 124/119/28 125/122/28
f 79/78/15 111/120/15 112/123/15
f 66/80/2 98/121/2 99/124/2
f 93/95/29 125/157/29 126/125/29
f 80/88/16 112/123/16 113/126/16
f 67/91/3 99/124/3 100/127/3
f 94/96/30 126/125/30 127/128/30
f 81/129/17 113/162/17 114/130/17
f 68/102/4 100/127/4 101/131/4
f 95/72/32 127/128/32 128/132/32
f 82/108/18 114/130/18 115/133/18
f 69/134/5 101/167/5 102/135/5
f 96/73/33 128/132/33 97/136/33
f 83/75/19 115/133/19 116/137/19
f 70/77/6 102/135/6 103/138/6
f 84/84/20 116/137/20 117/139/20
f 71/87/7 103/138/7 104/140/7
f 85/105/21 117/174/21 118/141/21
f 72/97/8 104/140/8 105/142/8
f 86/71/22 118/141/22 119/143/22
f 73/144/9 105/178/9 106/145/9
f 131/146/67 130/154/67 162/147/67
f 110/118/68 109/664/68 141/149/68
f 124/119/69 123/112/69 155/111/69
f 111/120/70 110/118/70 142/150/70
f 97/153/71 129/223/71 130/154/71
f 124/119/72 156/151/72 157/155/72
f 112/123/73 111/120/73 143/152/73
f 98/121/74 130/154/74 131/146/74
f 125/157/75 157/190/75 158/158/75
f 112/123/76 144/156/76 145/159/76
f 99/124/77 131/146/77 132/160/77
f 126/125/78 158/158/78 159/161/78
f 113/162/79 145/196/79 146/163/79
f 100/127/80 132/160/80 133/164/80
f 127/128/81 159/161/81 160/165/81
f 115/133/82 114/130/82 146/163/82
f 101/167/83 133/201/83 134/168/83
f 128/132/84 160/165/84 129/169/84
f 116/137/85 115/133/85 147/166/85
f 102/135/86 134/168/86 135/171/86
f 116/137/87 148/170/87 149/172/87
f 104/140/88 103/138/88 135/171/88
f 117/174/89 149/207/89 150/175/89
f 105/142/90 104/140/90 136/173/90
f 119/143/91 118/141/91 150/175/91
f 105/178/92 137/211/92 138/179/92
f 119/143/93 151/177/93 152/180/93
f 106/145/94 138/179/94 139/181/94
f 121/114/95 120/68/95 152/180/95
f 107/113/96 139/181/96 140/183/96
f 122/110/97 121/663/97 153/184/97
f 109/116/98 108/115/98 140/183/98
f 165/187/99 197/665/99 198/188/99
f 157/190/100 189/666/100 190/191/100
f 145/159/101 144/156/101 176/192/101
f 131/146/102 163/148/102 164/194/102
f 158/158/103 190/191/103 191/195/103
f 145/196/104 177/259/104 178/197/104
f 133/164/105 132/160/105 164/194/105
f 160/165/106 159/161/106 191/195/106
f 147/166/107 146/163/107 178/197/107
f 133/201/108 165/187/108 166/189/108
f 129/169/109 160/165/109 192/199/109
f 147/166/110 179/200/110 180/203/110
f 134/168/111 166/189/111 167/204/111
f 149/172/112 148/170/112 180/203/112
f 135/171/113 167/204/113 168/206/113
f 149/207/114 181/232/114 182/208/114
f 137/176/115 136/173/115 168/206/115
f 150/175/116 182/208/116 183/210/116
f 137/211/117 169/235/117 170/212/117
f 151/177/118 183/210/118 184/213/118
f 138/179/119 170/212/119 171/214/119
f 153/182/120 152/180/120 184/213/120
f 139/181/121 171/214/121 172/216/121
f 153/184/122 185/241/122 186/217/122
f 141/186/123 140/183/123 172/216/123
f 155/111/124 154/185/124 186/217/124
f 141/149/125 173/245/125 174/220/125
f 155/111/126 187/219/126 188/221/126
f 142/150/127 174/220/127 175/222/127
f 129/223/128 161/249/128 162/147/128
f 156/151/129 188/221/129 189/224/129
f 144/156/130 143/152/130 175/222/130
f 200/225/131 232/302/131 233/226/131
f 192/199/132 224/262/132 193/228/132
f 179/200/133 211/263/133 212/229/133
f 166/189/134 198/188/134 199/230/134
f 181/205/135 180/203/135 212/229/135
f 167/204/346 199/230/346 200/225/346
f 181/232/137 213/303/137 214/233/137
f 168/206/347 200/225/347 201/227/347
f 182/208/348 214/233/348 215/234/348
f 169/235/140 201/667/140 202/236/140
f 183/210/349 215/234/349 216/237/349
f 171/214/142 170/212/142 202/236/142
f 184/213/143 216/237/143 217/239/143
f 172/216/144 171/214/144 203/238/144
f 185/241/350 217/668/350 218/242/350
f 173/218/146 172/216/146 204/240/146
f 187/219/351 186/217/351 218/242/351
f 173/245/148 205/669/148 206/246/148
f 187/219/149 219/244/149 220/247/149
f 175/222/150 174/220/150 206/246/150
f 161/249/151 193/281/151 194/250/151
f 189/224/152 188/221/152 220/247/152
f 175/222/153 207/248/153 208/252/153
f 162/147/154 194/250/154 195/253/154
f 190/191/155 189/666/155 221/254/155
f 176/192/156 208/252/156 209/256/156
f 163/148/157 195/253/157 196/257/157
f 190/191/158 222/255/158 223/258/158
f 177/259/159 209/291/159 210/260/159
f 164/194/160 196/257/160 197/261/160
f 191/195/161 223/258/161 224/262/161
f 178/197/162 210/260/162 211/263/162
f 235/264/11 267/337/11 268/265/11
f 215/234/352 214/233/352 246/267/352
f 202/236/164 201/667/164 233/269/164
f 216/237/165 215/234/165 247/268/165
f 202/236/166 234/270/166 235/264/166
f 217/239/167 216/237/167 248/271/167
f 203/238/168 235/264/168 236/266/168
f 218/242/169 217/668/169 249/273/169
f 204/240/170 236/266/170 237/275/170
f 218/242/171 250/274/171 251/276/171
f 206/246/172 205/669/172 237/277/172
f 219/244/173 251/276/173 252/279/173
f 206/246/174 238/278/174 239/280/174
f 193/281/175 225/311/175 226/282/175
f 221/251/176 220/247/176 252/279/176
f 207/248/177 239/280/177 240/284/177
f 195/253/178 194/250/178 226/282/178
f 222/255/179 221/254/179 253/286/179
f 208/252/180 240/284/180 241/288/180
f 196/257/181 195/253/181 227/285/181
f 223/258/182 222/255/182 254/287/182
f 209/291/183 241/320/183 242/292/183
f 196/257/184 228/289/184 229/293/184
f 224/262/185 223/258/185 255/290/185
f 210/260/186 242/292/186 243/295/186
f 198/188/187 197/665/187 229/296/187
f 193/228/188 224/262/188 256/294/188
f 211/263/189 243/295/189 244/299/189
f 198/188/190 230/297/190 231/300/190
f 213/231/191 212/229/191 244/299/191
f 199/230/192 231/300/192 232/302/192
f 213/303/193 245/331/193 246/267/193
f 270/304/194 302/377/194 303/305/194
f 249/273/25 281/670/25 282/307/25
f 236/266/12 268/265/12 269/308/12
f 250/274/26 282/307/26 283/309/26
f 237/277/13 269/376/13 270/304/13
f 251/276/27 283/309/27 284/310/27
f 238/278/14 270/304/14 271/306/14
f 225/311/1 257/342/1 258/312/1
f 252/279/28 284/310/28 285/313/28
f 239/280/15 271/306/15 272/314/15
f 226/282/2 258/312/2 259/315/2
f 253/286/29 285/347/29 286/316/29
f 240/284/16 272/314/16 273/317/16
f 227/285/3 259/315/3 260/318/3
f 254/287/30 286/316/30 287/319/30
f 241/320/17 273/671/17 274/321/17
f 228/289/4 260/318/4 261/322/4
f 255/290/32 287/319/32 288/323/32
f 242/292/18 274/321/18 275/324/18
f 229/296/5 261/672/5 262/325/5
f 256/294/33 288/323/33 257/326/33
f 243/295/19 275/324/19 276/327/19
f 230/297/6 262/325/6 263/328/6
f 244/299/20 276/327/20 277/329/20
f 231/300/7 263/328/7 264/330/7
f 245/331/21 277/362/21 278/332/21
f 232/302/8 264/330/8 265/333/8
f 246/267/22 278/332/22 279/334/22
f 233/269/9 265/366/9 266/335/9
f 247/268/23 279/334/23 280/336/23
f 234/270/10 266/335/10 267/337/10
f 248/271/24 280/336/24 281/338/24
f 305/339/17 337/446/17 338/340/17
f 257/342/195 289/406/195 290/343/195
f 284/310/196 316/378/196 317/344/196
f 271/306/197 303/305/197 304/345/197
f 259/315/198 258/312/198 290/343/198
f 285/347/199 317/411/199 318/348/199
f 272/314/200 304/345/200 305/349/200
f 259/315/201 291/346/201 292/350/201
f 286/316/202 318/348/202 319/351/202
f 274/321/203 273/671/203 305/339/203
f 260/318/204 292/350/204 293/352/204
f 287/319/205 319/351/205 320/353/205
f 275/324/206 274/321/206 306/341/206
f 262/325/207 261/672/207 293/355/207
f 288/323/208 320/353/208 289/357/208
f 275/324/209 307/354/209 308/358/209
f 262/325/210 294/356/210 295/359/210
f 277/329/211 276/327/211 308/358/211
f 264/330/212 263/328/212 295/359/212
f 277/362/213 309/389/213 310/363/213
f 265/333/353 264/330/353 296/361/353
f 278/332/215 310/363/215 311/365/215
f 265/366/354 297/393/354 298/367/354
f 279/334/217 311/365/217 312/368/217
f 266/335/218 298/367/218 299/369/218
f 280/336/219 312/368/219 313/370/219
f 267/337/220 299/369/220 300/371/220
f 282/307/221 281/670/221 313/372/221
f 268/265/222 300/371/222 301/374/222
f 282/307/223 314/373/223 315/375/223
f 269/376/224 301/402/224 302/377/224
f 284/310/225 283/309/225 315/375/225
f 340/379/226 372/454/226 373/380/226
f 292/350/4 324/414/4 325/382/4
f 319/351/32 351/415/32 352/383/32
f 306/341/18 338/340/18 339/384/18
f 293/355/5 325/673/5 326/385/5
f 320/353/33 352/383/33 321/386/33
f 307/354/19 339/384/19 340/379/19
f 294/356/6 326/385/6 327/387/6
f 308/358/20 340/379/20 341/381/20
f 295/359/7 327/387/7 328/388/7
f 309/389/21 341/674/21 342/390/21
f 296/361/8 328/388/8 329/391/8
f 310/363/22 342/390/22 343/392/22
f 297/393/9 329/675/9 330/394/9
f 311/365/23 343/392/23 344/395/23
f 298/367/10 330/394/10 331/396/10
f 312/368/24 344/395/24 345/397/24
f 299/369/11 331/396/11 332/398/11
f 313/372/25 345/428/25 346/399/25
f 300/371/12 332/398/12 333/400/12
f 314/373/26 346/399/26 347/401/26
f 301/402/13 333/676/13 334/403/13
f 315/375/27 347/401/27 348/404/27
f 302/377/14 334/403/14 335/405/14
f 289/406/1 321/677/1 322/407/1
f 316/378/28 348/404/28 349/408/28
f 303/305/15 335/405/15 336/409/15
f 290/343/2 322/407/2 323/410/2
f 317/411/29 349/441/29 350/412/29
f 304/345/16 336/409/16 337/413/16
f 291/346/3 323/410/3 324/414/3
f 318/348/30 350/412/30 351/415/30
f 375/416/227 407/493/227 408/417/227
f 327/387/228 359/455/228 360/419/228
f 342/390/229 341/674/229 373/420/229
f 328/388/230 360/419/230 361/422/230
f 342/390/231 374/421/231 375/416/231
f 330/394/232 329/675/232 361/423/232
f 344/395/233 343/392/233 375/416/233
f 330/394/234 362/424/234 363/425/234
f 344/395/235 376/418/235 377/426/235
f 331/396/355 363/425/355 364/427/355
f 345/428/237 377/463/237 378/429/237
f 332/398/238 364/427/238 365/430/238
f 347/401/239 346/399/239 378/429/239
f 334/403/240 333/676/240 365/432/240
f 347/401/241 379/431/241 380/434/241
f 334/403/242 366/433/242 367/435/242
f 322/407/243 321/677/243 353/436/243
f 348/404/244 380/434/244 381/438/244
f 336/409/245 335/405/245 367/435/245
f 323/410/246 322/407/246 354/437/246
f 349/441/247 381/678/247 382/442/247
f 336/409/248 368/439/248 369/443/248
f 323/410/249 355/440/249 356/444/249
f 351/415/250 350/412/250 382/442/250
f 337/446/251 369/679/251 370/447/251
f 324/414/252 356/444/252 357/448/252
f 351/415/253 383/445/253 384/449/253
f 338/340/254 370/447/254 371/450/254
f 326/385/255 325/673/255 357/451/255
f 352/383/256 384/449/256 353/453/256
f 340/379/257 339/384/257 371/450/257
f 327/387/356 326/385/356 358/452/356
f 410/456/26 442/528/26 443/457/26
f 363/425/259 362/424/259 394/459/259
f 376/418/260 408/417/260 409/461/260
f 363/425/261 395/460/261 396/462/261
f 377/463/262 409/527/262 410/456/262
f 364/427/263 396/462/263 397/464/263
f 378/429/264 410/456/264 411/458/264
f 366/433/265 365/432/265 397/465/265
f 379/431/266 411/458/266 412/467/266
f 367/435/267 366/433/267 398/466/267
f 353/436/268 385/501/268 386/469/268
f 380/434/269 412/467/269 413/470/269
f 367/435/270 399/468/270 400/471/270
f 354/437/271 386/469/271 387/472/271
f 382/442/272 381/678/272 413/473/272
f 369/443/273 368/439/273 400/471/273
f 355/440/274 387/472/274 388/476/274
f 382/442/275 414/474/275 415/477/275
f 370/447/276 369/679/276 401/478/276
f 356/444/277 388/476/277 389/480/277
f 383/445/278 415/477/278 416/481/278
f 371/450/279 370/447/279 402/479/279
f 358/452/280 357/451/280 389/483/280
f 384/449/281 416/481/281 385/485/281
f 372/454/282 371/450/282 403/482/282
f 359/455/283 358/452/283 390/484/283
f 373/380/284 372/454/284 404/486/284
f 359/455/285 391/487/285 392/489/285
f 374/421/286 373/420/286 405/490/286
f 361/422/287 360/419/287 392/489/287
f 374/421/288 406/491/288 407/493/288
f 362/424/289 361/423/289 393/494/289
f 445/495/29 477/640/29 478/496/29
f 397/465/13 429/559/13 430/498/13
f 411/458/27 443/457/27 444/499/27
f 398/466/14 430/498/14 431/500/14
f 385/501/1 417/563/1 418/502/1
f 412/467/28 444/499/28 445/503/28
f 399/468/15 431/500/15 432/504/15
f 386/469/2 418/502/2 419/505/2
f 413/473/29 445/495/29 446/497/29
f 400/471/16 432/504/16 433/506/16
f 387/472/3 419/505/3 420/507/3
f 414/474/30 446/497/30 447/508/30
f 401/478/17 433/533/17 434/509/17
f 388/476/4 420/507/4 421/510/4
f 415/477/32 447/508/32 448/511/32
f 402/479/18 434/509/18 435/512/18
f 389/483/5 421/538/5 422/513/5
f 416/481/33 448/511/33 417/514/33
f 403/482/19 435/512/19 436/515/19
f 390/484/6 422/513/6 423/516/6
f 404/486/20 436/515/20 437/517/20
f 391/487/7 423/516/7 424/518/7
f 405/490/21 437/545/21 438/519/21
f 392/489/8 424/518/8 425/520/8
f 406/491/22 438/519/22 439/521/22
f 393/494/9 425/549/9 426/522/9
f 407/493/23 439/521/23 440/523/23
f 394/459/10 426/522/10 427/524/10
f 408/417/24 440/523/24 441/525/24
f 395/460/11 427/524/11 428/526/11
f 409/527/25 441/555/25 442/528/25
f 396/462/12 428/526/12 429/529/12
f 432/504/16 464/566/16 465/530/16
f 419/505/3 451/567/3 452/531/3
f 446/497/30 478/496/30 479/532/30
f 433/533/17 465/580/17 466/534/17
f 420/507/4 452/531/4 453/535/4
f 447/508/32 479/532/32 480/536/32
f 434/509/18 466/534/18 467/537/18
f 421/538/5 453/650/5 454/539/5
f 448/511/33 480/536/33 449/540/33
f 435/512/19 467/537/19 468/541/19
f 422/513/6 454/539/6 455/542/6
f 436/515/20 468/541/20 469/543/20
f 423/516/7 455/542/7 456/544/7
f 437/545/21 469/660/21 470/546/21
f 424/518/8 456/544/8 457/547/8
f 438/519/22 470/546/22 471/548/22
f 425/549/9 457/591/9 458/550/9
f 439/521/23 471/548/23 472/551/23
f 426/522/10 458/550/10 459/552/10
f 440/523/24 472/551/24 473/553/24
f 427/524/11 459/552/11 460/554/11
f 441/555/25 473/595/25 474/556/25
f 428/526/12 460/554/12 461/557/12
f 442/528/26 474/556/26 475/558/26
f 429/559/13 461/627/13 462/560/13
f 443/457/27 475/558/27 476/561/27
f 430/498/14 462/560/14 463/562/14
f 417/563/1 449/680/1 450/564/1
f 444/499/28 476/561/28 477/565/28
f 431/500/15 463/562/15 464/566/15
f 418/502/2 450/564/2 451/567/2
f 494/571/29 548/617/29 547/572/29
f 450/564/291 449/680/291 481/574/291
f 463/562/292 495/598/292 496/576/292
f 464/566/293 496/576/293 497/577/293
f 507/578/10 557/616/10 556/579/10
f 465/580/294 497/604/294 498/581/294
f 480/536/295 479/532/295 511/582/295
f 480/536/296 512/583/296 481/584/296
f 493/573/28 547/572/28 546/585/28
f 456/544/297 455/542/297 487/587/297
f 456/544/298 488/588/298 489/589/298
f 470/546/22 530/661/22 531/590/22
f 457/591/299 489/613/299 490/592/299
f 471/548/300 503/612/300 504/593/300
f 472/551/301 504/593/301 505/594/301
f 473/595/302 505/569/302 506/568/302
f 458/550/10 520/657/10 521/615/10
f 508/597/11 558/621/11 557/616/11
f 495/598/30 549/652/30 548/617/30
f 459/552/11 521/615/11 522/618/11
f 511/582/334 479/532/334 537/619/334
f 509/600/12 559/625/12 558/621/12
f 460/554/12 522/618/12 523/622/12
f 498/581/335 550/635/335 526/623/335
f 483/601/18 539/629/18 538/624/18
f 510/602/13 560/630/13 559/625/13
f 474/556/26 532/645/26 533/626/26
f 461/627/13 523/622/13 524/628/13
f 484/603/19 540/633/19 539/629/19
f 511/582/14 561/620/14 560/630/14
f 475/558/27 533/626/27 534/631/27
f 462/560/14 524/628/14 525/632/14
f 485/606/20 541/638/20 540/633/20
f 476/561/28 534/631/28 535/634/28
f 499/607/2 551/642/2 550/635/2
f 487/587/336 455/542/336 519/636/336
f 486/608/21 542/643/21 541/638/21
f 450/564/2 514/659/2 515/639/2
f 477/640/29 535/634/29 536/641/29
f 500/609/3 552/646/3 551/642/3
f 487/587/22 543/637/22 542/643/22
f 451/567/3 515/639/3 516/644/3
f 506/568/337 556/579/337 532/645/337
f 478/496/30 536/641/30 537/619/30
f 501/610/4 553/648/4 552/646/4
f 452/531/4 516/644/4 517/647/4
f 502/611/5 554/653/5 553/648/5
f 466/534/18 526/623/18 527/649/18
f 453/650/5 517/647/5 518/651/5
f 495/598/338 463/562/338 525/632/338
f 503/612/6 555/655/6 554/653/6
f 467/537/19 527/649/19 528/654/19
f 503/612/339 471/548/339 531/590/339
f 454/539/6 518/651/6 519/636/6
f 468/541/20 528/654/20 529/656/20
f 490/592/340 544/658/340 520/657/340
f 491/614/26 545/662/26 544/658/26
f 482/575/341 538/624/341 514/659/341
f 469/660/21 529/656/21 530/661/21
f 492/586/27 546/585/27 545/662/27
f 518/651/357 517/647/357 541/638/357
f 516/644/358 515/639/358 540/633/358
f 514/659/359 538/624/359 539/629/359
f 514/659/359 539/629/359 515/639/359
f 517/647/342 516/644/342 540/633/342
f 543/637/360 519/636/360 542/643/360
f 542/643/360 519/636/360 518/651/360
f 515/639/358 539/629/358 540/633/358
f 541/638/357 542/643/357 518/651/357
f 521/615/361 520/657/361 545/662/361
f 520/657/361 544/658/361 545/662/361
f 523/622/362 522/618/362 546/585/362
f 525/632/363 524/628/363 548/617/363
f 548/617/363 549/652/363 525/632/363
f 547/572/364 548/617/364 524/628/364
f 524/628/364 523/622/364 547/572/364
f 521/615/343 545/662/343 546/585/343
f 546/585/362 547/572/362 523/622/362
f 527/649/365 526/623/365 551/642/365
f 526/623/365 550/635/365 551/642/365
f 529/656/366 528/654/366 552/646/366
f 531/590/367 530/661/367 554/653/367
f 554/653/367 555/655/367 531/590/367
f 553/648/368 554/653/368 530/661/368
f 530/661/368 529/656/368 553/648/368
f 527/649/344 551/642/344 552/646/344
f 552/646/366 553/648/366 529/656/366
f 533/626/369 532/645/369 557/616/369
f 532/645/369 556/579/369 557/616/369
f 535/634/370 534/631/370 558/621/370
f 537/619/371 536/641/371 560/630/371
f 560/630/371 561/620/371 537/619/371
f 559/625/372 560/630/372 536/641/372
f 536/641/372 535/634/372 559/625/372
f 533/626/345 557/616/345 558/621/345
f 558/621/370 559/625/370 535/634/370
